<?xml version="1.0" encoding="UTF-8" standalone="no"?>
<!-- Created with Inkscape (http://www.inkscape.org/) -->

<svg
   xmlns:dc="http://purl.org/dc/elements/1.1/"
   xmlns:cc="http://creativecommons.org/ns#"
   xmlns:rdf="http://www.w3.org/1999/02/22-rdf-syntax-ns#"
   xmlns:svg="http://www.w3.org/2000/svg"
   xmlns="http://www.w3.org/2000/svg"
   xmlns:sodipodi="http://sodipodi.sourceforge.net/DTD/sodipodi-0.dtd"
   xmlns:inkscape="http://www.inkscape.org/namespaces/inkscape"
   width="112mm"
   height="92mm"
   viewBox="0 0 396.85039 325.98425"
   id="svg7307"
   version="1.1"
   inkscape:version="0.91 r13725"
   sodipodi:docname="hexagonal-sticker-cardhome-template.svg">
  <defs
     id="defs7309">
    <clipPath
       clipPathUnits="userSpaceOnUse"
       id="clipPath18">
      <path
         d="m 0,260.787 317.48,0 L 317.48,0 0,0 0,260.787 Z"
         id="path20"
         inkscape:connector-curvature="0" />
    </clipPath>
  </defs>
  <sodipodi:namedview
     id="base"
     pagecolor="#ffffff"
     bordercolor="#666666"
     borderopacity="1.0"
     inkscape:pageopacity="0.0"
     inkscape:pageshadow="2"
     inkscape:zoom="1"
     inkscape:cx="209.37884"
     inkscape:cy="208.32477"
     inkscape:document-units="px"
     inkscape:current-layer="g16"
     showgrid="false"
     units="mm"
     fit-margin-top="1"
     fit-margin-bottom="1"
     fit-margin-right="1"
     fit-margin-left="1"
     showguides="true"
     inkscape:guide-bbox="true"
     inkscape:window-width="1280"
     inkscape:window-height="710"
     inkscape:window-x="0"
     inkscape:window-y="1"
     inkscape:window-maximized="1"
     inkscape:snap-bbox="false"
     inkscape:bbox-paths="true"
     inkscape:bbox-nodes="true"
     inkscape:snap-bbox-edge-midpoints="true"
     inkscape:snap-bbox-midpoints="true"
     inkscape:object-paths="true"
     inkscape:snap-intersection-paths="true"
     inkscape:object-nodes="true"
     inkscape:snap-smooth-nodes="true"
     inkscape:snap-midpoints="true"
     inkscape:snap-text-baseline="true"
     inkscape:snap-nodes="true"
     inkscape:snap-others="true"
     inkscape:snap-object-midpoints="true"
     inkscape:snap-center="true"
     inkscape:showpageshadow="true"
     showborder="true"
     borderlayer="true">
    <inkscape:grid
       type="xygrid"
       id="grid4583"
       units="mm"
       originx="0"
       originy="0"
       spacingx="3.543307"
       spacingy="3.5433071"
       empspacing="10" />
  </sodipodi:namedview>
  <metadata
     id="metadata7312">
    <rdf:RDF>
      <cc:Work
         rdf:about="">
        <dc:format>image/svg+xml</dc:format>
        <dc:type
           rdf:resource="http://purl.org/dc/dcmitype/StillImage" />
        <dc:title></dc:title>
      </cc:Work>
    </rdf:RDF>
  </metadata>
  <g
     inkscape:groupmode="layer"
     id="layer4"
     inkscape:label="Template Text"
     style="display:inline"
     transform="translate(0,-664.01583)">
    <g
       style="font-style:normal;font-weight:normal;font-size:34.00231552px;line-height:521.00000381%;font-family:Sans;letter-spacing:0px;word-spacing:0px;fill:#000000;fill-opacity:1;stroke:none;stroke-width:1px;stroke-linecap:butt;stroke-linejoin:miter;stroke-opacity:1"
       id="text8212"
       transform="matrix(0.47523504,0,0,0.47523504,39.222596,660.87072)" />
    <g
       transform="matrix(0.47523504,0,0,0.47523504,149.1349,908.76062)"
       style="font-style:normal;font-weight:normal;font-size:29.74009705px;line-height:120.00000477%;font-family:Sans;letter-spacing:0px;word-spacing:0px;fill:#000000;fill-opacity:1;stroke:none;stroke-width:1px;stroke-linecap:butt;stroke-linejoin:miter;stroke-opacity:1"
       id="text8216" />
    <g
       style="font-style:normal;font-weight:normal;font-size:14.63270473px;line-height:521.00000381%;font-family:Sans;letter-spacing:0px;word-spacing:0px;fill:#000000;fill-opacity:1;stroke:none;stroke-width:1px;stroke-linecap:butt;stroke-linejoin:miter;stroke-opacity:1"
       id="text8542"
       transform="matrix(0.47523504,0,0,0.47523504,16.465791,620.41931)" />
    <text
       xml:space="preserve"
       style="font-style:normal;font-weight:normal;font-size:40px;line-height:125%;font-family:Sans;letter-spacing:0px;word-spacing:0px;fill:#000000;fill-opacity:1;stroke:none;stroke-width:1px;stroke-linecap:butt;stroke-linejoin:miter;stroke-opacity:1"
       x="74.409447"
       y="1014.8032"
       id="text4988"
       sodipodi:linespacing="125%"><tspan
         sodipodi:role="line"
         id="tspan4990"
         x="74.409447"
         y="1014.8032" /></text>
    <rect
       style="display:inline;opacity:1;fill:none;fill-opacity:1;stroke:#0093d9;stroke-width:1.05359018;stroke-linecap:round;stroke-linejoin:round;stroke-miterlimit:4;stroke-dasharray:2.10718031, 4.21436061;stroke-dashoffset:10;stroke-opacity:1"
       id="rect8406"
       width="10.629922"
       height="10.629928"
       x="53.149609"
       y="915.5907" />
    <rect
       y="901.41748"
       x="53.149609"
       height="10.629928"
       width="10.629921"
       id="rect8408"
       style="display:inline;opacity:1;fill:none;fill-opacity:1;stroke:#db3279;stroke-width:1.05359018;stroke-linecap:round;stroke-linejoin:round;stroke-miterlimit:4;stroke-dasharray:none;stroke-dashoffset:6.5;stroke-opacity:1" />
    <rect
       style="display:inline;opacity:1;fill:none;fill-opacity:1;stroke:#000000;stroke-width:1.0535897;stroke-linecap:round;stroke-linejoin:round;stroke-miterlimit:4;stroke-dasharray:none;stroke-dashoffset:6.5;stroke-opacity:1"
       id="rect8426"
       width="10.629914"
       height="10.629928"
       x="53.149609"
       y="929.76392" />
    <text
       xml:space="preserve"
       style="font-style:normal;font-weight:normal;font-size:40px;line-height:125%;font-family:Sans;text-align:start;letter-spacing:0px;word-spacing:0px;text-anchor:start;display:inline;fill:#000000;fill-opacity:1;stroke:none;stroke-width:1px;stroke-linecap:butt;stroke-linejoin:miter;stroke-opacity:1"
       x="53.149609"
       y="951.02368"
       id="text4984"
       sodipodi:linespacing="125%"><tspan
         sodipodi:role="line"
         id="tspan4986"
         x="53.149609"
         y="951.02368"
         style="font-style:normal;font-variant:normal;font-weight:normal;font-stretch:normal;font-size:6.25px;font-family:'Open Sans';-inkscape-font-specification:'Open Sans';text-align:start;text-anchor:start">Hexagonal Sticker Spec</tspan><tspan
         sodipodi:role="line"
         x="53.149609"
         y="958.83618"
         style="font-style:normal;font-variant:normal;font-weight:normal;font-stretch:normal;font-size:6.25px;font-family:'Open Sans';-inkscape-font-specification:'Open Sans';text-align:start;text-anchor:start"
         id="tspan4209">https://github.com/terinjokes/StickerContructorSpec</tspan></text>
    <text
       xml:space="preserve"
       style="font-style:normal;font-weight:normal;font-size:40px;line-height:125%;font-family:Sans;text-align:start;letter-spacing:0px;word-spacing:0px;text-anchor:start;display:inline;fill:#000000;fill-opacity:1;stroke:none;stroke-width:1px;stroke-linecap:butt;stroke-linejoin:miter;stroke-opacity:1"
       x="67.32283"
       y="908.50403"
       id="text4984-8"
       sodipodi:linespacing="125%"><tspan
         sodipodi:role="line"
         id="tspan4986-6"
         x="67.32283"
         y="908.50403"
         style="font-style:normal;font-variant:normal;font-weight:bold;font-stretch:normal;font-size:6.25px;font-family:'Open Sans';-inkscape-font-specification:'Open Sans Bold';text-align:start;text-anchor:start">Safe area</tspan></text>
    <text
       xml:space="preserve"
       style="font-style:normal;font-weight:normal;font-size:40px;line-height:125%;font-family:Sans;letter-spacing:0px;word-spacing:0px;display:inline;fill:#000000;fill-opacity:1;stroke:none;stroke-width:1px;stroke-linecap:butt;stroke-linejoin:miter;stroke-opacity:1"
       x="67.32283"
       y="922.67725"
       id="text4984-8-2"
       sodipodi:linespacing="125%"><tspan
         sodipodi:role="line"
         id="tspan4986-6-0"
         x="67.32283"
         y="922.67725"
         style="font-style:normal;font-variant:normal;font-weight:bold;font-stretch:normal;font-size:6.25px;font-family:'Open Sans';-inkscape-font-specification:'Open Sans Bold';text-align:start;text-anchor:start">Trim</tspan></text>
    <text
       xml:space="preserve"
       style="font-style:normal;font-weight:normal;font-size:40px;line-height:125%;font-family:Sans;letter-spacing:0px;word-spacing:0px;display:inline;fill:#000000;fill-opacity:1;stroke:none;stroke-width:1px;stroke-linecap:butt;stroke-linejoin:miter;stroke-opacity:1"
       x="67.322815"
       y="936.85046"
       id="text4984-8-2-0"
       sodipodi:linespacing="125%"><tspan
         sodipodi:role="line"
         id="tspan4986-6-0-9"
         x="67.322815"
         y="936.85046"
         style="font-style:normal;font-variant:normal;font-weight:bold;font-stretch:normal;font-size:6.25px;font-family:'Open Sans';-inkscape-font-specification:'Open Sans Bold';text-align:start;text-anchor:start">Bleed</tspan></text>
  </g>
  <g
     inkscape:groupmode="layer"
     id="layer3"
     inkscape:label="Trim Lines"
     style="display:inline"
     transform="translate(0,-664.01583)">
    <g
       id="g4204"
       transform="translate(3.543306,7.0866121)">
      <path
         sodipodi:type="star"
         style="color:#000000;display:inline;overflow:visible;visibility:visible;fill:none;fill-opacity:1;fill-rule:nonzero;stroke:#0093d9;stroke-width:1.16022968;stroke-linecap:round;stroke-linejoin:miter;stroke-miterlimit:4;stroke-dasharray:2.32045933, 4.64091866;stroke-dashoffset:7.51718092;stroke-opacity:1;marker:none;enable-background:accumulate"
         id="path7936"
         sodipodi:sides="6"
         sodipodi:cx="121.90476"
         sodipodi:cy="126.57602"
         sodipodi:r1="103.56153"
         sodipodi:r2="103.56153"
         sodipodi:arg1="-0.52327829"
         sodipodi:arg2="0.0003204856"
         inkscape:flatsided="true"
         inkscape:rounded="0"
         inkscape:randomized="0"
         d="m 211.60827,74.824 -0.0332,103.56153 -89.70351,51.75202 -89.670315,-51.80951 0.03319,-103.561527 89.703505,-51.752019 z"
         inkscape:transform-center-x="-1.5565951"
         inkscape:transform-center-y="0.34788776"
         transform="matrix(0,-0.86033594,-0.86346354,0,248.32168,870.8589)" />
      <path
         transform="matrix(0,-0.75721108,-0.75996379,0,235.13242,858.26767)"
         inkscape:transform-center-y="0.30618105"
         inkscape:transform-center-x="-1.3700049"
         d="m 211.60827,74.824 -0.0332,103.56153 -89.70351,51.75202 -89.670315,-51.80951 0.03319,-103.561527 89.703505,-51.752019 z"
         inkscape:randomized="0"
         inkscape:rounded="0"
         inkscape:flatsided="true"
         sodipodi:arg2="0.0003204856"
         sodipodi:arg1="-0.52327829"
         sodipodi:r2="103.56153"
         sodipodi:r1="103.56153"
         sodipodi:cy="126.57602"
         sodipodi:cx="121.90476"
         sodipodi:sides="6"
         id="path8410"
         style="color:#000000;display:inline;overflow:visible;visibility:visible;fill:none;fill-opacity:1;fill-rule:nonzero;stroke:#db3279;stroke-width:1.23811221;stroke-linecap:round;stroke-linejoin:miter;stroke-miterlimit:4;stroke-dasharray:none;stroke-dashoffset:7.51718092;stroke-opacity:1;marker:none;enable-background:accumulate"
         sodipodi:type="star" />
      <path
         transform="matrix(0,-0.96346073,-0.96696321,0,261.51092,883.45012)"
         inkscape:transform-center-y="0.38958732"
         inkscape:transform-center-x="-1.7431761"
         d="m 211.60827,74.824 -0.0332,103.56153 -89.70351,51.75202 -89.670315,-51.80951 0.03319,-103.561527 89.703505,-51.752019 z"
         inkscape:randomized="0"
         inkscape:rounded="0"
         inkscape:flatsided="true"
         sodipodi:arg2="0.0003204856"
         sodipodi:arg1="-0.52327829"
         sodipodi:r2="103.56153"
         sodipodi:r1="103.56153"
         sodipodi:cy="126.57602"
         sodipodi:cx="121.90476"
         sodipodi:sides="6"
         id="path8424"
         style="color:#000000;display:inline;overflow:visible;visibility:visible;fill:none;fill-opacity:1;fill-rule:nonzero;stroke:#000000;stroke-width:1.09156549;stroke-linecap:round;stroke-linejoin:miter;stroke-miterlimit:4;stroke-dasharray:none;stroke-dashoffset:7.51718092;stroke-opacity:1;marker:none;enable-background:accumulate"
         sodipodi:type="star" />
    </g>
    <g
       id="g4199"
       transform="translate(-3.5433027,3.8318393)">
      <path
         transform="matrix(0,-0.86033594,-0.86346354,0,402.54934,985.53996)"
         inkscape:transform-center-y="0.34788976"
         inkscape:transform-center-x="-1.5565951"
         d="m 211.60827,74.824 -0.0332,103.56153 -89.70351,51.75202 -89.670315,-51.80951 0.03319,-103.561527 89.703505,-51.752019 z"
         inkscape:randomized="0"
         inkscape:rounded="0"
         inkscape:flatsided="true"
         sodipodi:arg2="0.0003204856"
         sodipodi:arg1="-0.52327829"
         sodipodi:r2="103.56153"
         sodipodi:r1="103.56153"
         sodipodi:cy="126.57602"
         sodipodi:cx="121.90476"
         sodipodi:sides="6"
         id="path4577"
         style="color:#000000;display:inline;overflow:visible;visibility:visible;fill:none;fill-opacity:1;fill-rule:nonzero;stroke:#0093d9;stroke-width:1.16022968;stroke-linecap:round;stroke-linejoin:miter;stroke-miterlimit:4;stroke-dasharray:2.32045933, 4.64091866;stroke-dashoffset:7.51718092;stroke-opacity:1;marker:none;enable-background:accumulate"
         sodipodi:type="star" />
      <path
         sodipodi:type="star"
         style="color:#000000;display:inline;overflow:visible;visibility:visible;fill:none;fill-opacity:1;fill-rule:nonzero;stroke:#db3279;stroke-width:1.23811221;stroke-linecap:round;stroke-linejoin:miter;stroke-miterlimit:4;stroke-dasharray:none;stroke-dashoffset:7.51718092;stroke-opacity:1;marker:none;enable-background:accumulate"
         id="path4579"
         sodipodi:sides="6"
         sodipodi:cx="121.90476"
         sodipodi:cy="126.57602"
         sodipodi:r1="103.56153"
         sodipodi:r2="103.56153"
         sodipodi:arg1="-0.52327829"
         sodipodi:arg2="0.0003204856"
         inkscape:flatsided="true"
         inkscape:rounded="0"
         inkscape:randomized="0"
         d="m 211.60827,74.824 -0.0332,103.56153 -89.70351,51.75202 -89.670315,-51.80951 0.03319,-103.561527 89.703505,-51.752019 z"
         inkscape:transform-center-x="-1.373041"
         inkscape:transform-center-y="0.30686511"
         transform="matrix(0,-0.75888811,-0.76164692,0,389.57616,973.15385)" />
      <path
         sodipodi:type="star"
         style="color:#000000;display:inline;overflow:visible;visibility:visible;fill:none;fill-opacity:1;fill-rule:nonzero;stroke:#000000;stroke-width:1.09156573;stroke-linecap:round;stroke-linejoin:miter;stroke-miterlimit:4;stroke-dasharray:none;stroke-dashoffset:7.51718092;stroke-opacity:1;marker:none;enable-background:accumulate"
         id="path4581"
         sodipodi:sides="6"
         sodipodi:cx="121.90476"
         sodipodi:cy="126.57602"
         sodipodi:r1="103.56153"
         sodipodi:r2="103.56153"
         sodipodi:arg1="-0.52327829"
         sodipodi:arg2="0.0003204856"
         inkscape:flatsided="true"
         inkscape:rounded="0"
         inkscape:randomized="0"
         d="m 211.60827,74.824 -0.0332,103.56153 -89.70351,51.75202 -89.670315,-51.80951 0.03319,-103.561527 89.703505,-51.752019 z"
         inkscape:transform-center-x="-1.7401398"
         inkscape:transform-center-y="0.38890776"
         transform="matrix(0,-0.96178386,-0.96528024,0,415.52252,997.92611)" />
    </g>
    <text
       xml:space="preserve"
       style="font-style:normal;font-weight:normal;font-size:40px;line-height:125%;font-family:Sans;letter-spacing:0px;word-spacing:0px;fill:#000000;fill-opacity:1;stroke:none;stroke-width:1px;stroke-linecap:butt;stroke-linejoin:miter;stroke-opacity:1"
       x="35.433071"
       y="954.56702"
       id="text4956"
       sodipodi:linespacing="125%"><tspan
         sodipodi:role="line"
         id="tspan4958"
         x="35.433071"
         y="954.56702" /></text>
  </g>
  <g
     inkscape:groupmode="layer"
     id="layer5"
     inkscape:label="Cardhome Border">
    <path
       d="m 0,325.98425 35.4325,0 0,-325.98375478982 -35.4325,0 L 0,325.98425 Z"
       style="fill:#e9e9e9;fill-opacity:1;fill-rule:nonzero;stroke:none"
       id="path12"
       inkscape:connector-curvature="0" />
    <g
       transform="matrix(1.25,0,0,-1.25,0,325.98425)"
       id="g14">
      <g
         id="g16"
         clip-path="url(#clipPath18)">
        <path
           d="m 0,0 28.347,0 0,260.787 L 0,260.787 0,0 Z"
           style="fill:none;stroke:#231f20;stroke-width:0.21600001;stroke-linecap:butt;stroke-linejoin:miter;stroke-miterlimit:4;stroke-dasharray:none;stroke-opacity:1"
           id="path22"
           inkscape:connector-curvature="0" />
        <path
           d="m 1.24,-0.106 317.376,0 0,260.784 -317.376,0 0,-260.784 z"
           style="fill:none;stroke:#231f20;stroke-width:0.21600001;stroke-linecap:butt;stroke-linejoin:miter;stroke-miterlimit:4;stroke-dasharray:none;stroke-opacity:1"
           id="path24"
           inkscape:connector-curvature="0" />
        <path
           d="m 19.799,20.573 -1.746,0 0,-6.715 1.746,0 0,6.715 z m -2.836,0 -1.582,0 0,-6.715 1.582,0 0,6.715 z m -4.019,-6.715 1.348,0 0,6.715 -1.348,0 0,-6.715 z m -1.113,3.516 0,4.383 9.679,0 0,-1.184 -0.597,0 0,-6.715 0.597,0 0,-1.171 -9.679,0 0,3.515 c -0.375,0.172 -0.825,0.332 -1.348,0.481 l 0.082,1.195 c 0.195,-0.07 0.402,-0.145 0.621,-0.223 0.172,-0.062 0.387,-0.156 0.645,-0.281"
           style="fill:#231f20;fill-opacity:1;fill-rule:nonzero;stroke:none"
           id="path26"
           inkscape:connector-curvature="0" />
        <g
           id="g28"
           transform="translate(12.2876,29.5381)">
          <path
             d="M 0,0 0.27,0 C 2.465,0 4.34,-0.449 5.895,-1.348 7.457,-2.246 8.566,-3.344 9.223,-4.641 L 8.262,-5.625 c -1.61,2.937 -4.313,4.406 -8.11,4.406 l -0.152,0 0,-4.019 -1.184,0 0,10.16 C 1.621,4.891 4.027,4.785 6.035,4.605 7.051,4.504 7.73,4.379 8.074,4.23 8.418,4.082 8.66,3.871 8.801,3.598 8.949,3.324 9.023,2.543 9.023,1.254 l 0,-0.75 -1.277,-0.305 c 0.047,0.758 0.07,1.367 0.07,1.828 0,0.532 -0.078,0.871 -0.234,1.02 C 7.418,3.188 6.551,3.32 4.98,3.445 3.402,3.578 1.738,3.652 -0.012,3.668 L 0,0 Z"
             style="fill:#231f20;fill-opacity:1;fill-rule:nonzero;stroke:none"
             id="path30"
             inkscape:connector-curvature="0" />
        </g>
        <path
           d="m 16.881,41.069 1.301,0 0,3.797 -1.301,0 0,-3.797 z M 16.389,36.03 c -0.719,0.664 -1.476,1.203 -2.273,1.617 l 0,-1.816 -0.996,0 0,3.047 0.832,0 c 0.797,-0.383 1.554,-0.867 2.273,-1.453 l 0,1.512 0.668,0 c 0.586,-0.079 1.137,-0.227 1.652,-0.446 0.086,0 0.289,0.184 0.61,0.551 0.32,0.359 0.554,0.867 0.703,1.523 0.141,0.657 0.211,1.606 0.211,2.848 0,1.25 -0.027,2.371 -0.082,3.363 l 1.16,-0.187 0,-2.051 c 0,-2.437 -0.125,-4.043 -0.375,-4.816 -0.258,-0.774 -0.672,-1.344 -1.242,-1.711 0.75,-0.446 1.375,-0.965 1.875,-1.559 l -0.844,-0.726 c -0.906,1.164 -2.027,1.855 -3.363,2.074 l 0,-1.793 -0.809,0.023 z m -3.539,1.711 c -0.664,-0.609 -1.195,-1.176 -1.594,-1.699 l -0.668,0.668 c 0.493,0.703 0.981,1.281 1.465,1.734 l 0.797,-0.703 z m 3.082,5.789 0,2.438 3.211,0 0,-6 -3.211,0 0,2.449 -0.984,0 0,-3.188 -0.973,0 0,3.188 -1.242,0 0,-1.535 c 0.469,-0.313 0.844,-0.598 1.125,-0.856 l -0.656,-0.914 c -0.758,0.711 -1.637,1.246 -2.637,1.606 l 0.281,1.008 c 0.461,-0.164 0.774,-0.293 0.938,-0.387 l 0,1.078 -1.313,0 0,1.113 1.313,0 0,2.578 0.949,0 0,-2.578 1.242,0 0,3.094 0.973,0 0,-3.094 0.984,0 z"
           style="fill:#231f20;fill-opacity:1;fill-rule:nonzero;stroke:none"
           id="path32"
           inkscape:connector-curvature="0" />
        <path
           d="m 11.807,50.538 1.465,0 0,1.371 -1.465,0 0,-1.371 z m 3.211,4.57 -3.996,0 0,1.066 3.996,0 0,-1.066 z m 1.359,-2.109 0,0.844 1.348,0 0,4.09 1.078,0 0,-4.09 1.184,0 0,4.945 1.066,0 0,-11.051 -1.066,0 0,4.946 -1.184,0 0,-4.067 -1.078,0 0,4.067 -0.797,0 0,-0.774 -2.672,0 0,-1.406 c 1.172,-0.039 2.172,-0.66 3,-1.863 l -0.937,-0.786 c -0.164,0.329 -0.438,0.665 -0.82,1.008 -0.383,0.344 -0.793,0.52 -1.231,0.528 l 0,-1.664 -0.984,0 0,1.711 -1.465,0 0,-1.372 -0.996,0 0,6.2 0.996,0 0,-1.278 1.465,0 0,1.489 0.984,0 0,-1.489 2.109,0.012 z m -0.832,5.367 c 0.555,0 0.922,-0.094 1.102,-0.281 0.187,-0.195 0.281,-0.582 0.281,-1.16 l 0,-1.324 -1.113,-0.27 0.047,1.57 c 0,0.258 -0.125,0.387 -0.375,0.387 l -5.016,0 0,1.078 5.074,0 z"
           style="fill:#231f20;fill-opacity:1;fill-rule:nonzero;stroke:none"
           id="path34"
           inkscape:connector-curvature="0" />
        <g
           id="g36"
           transform="translate(19.0142,61.9053)">
          <path
             d="M 0,0 C 0.875,-0.242 1.691,-0.637 2.449,-1.184 L 1.992,-2.168 c -0.703,0.594 -1.441,1.012 -2.215,1.254 L 0,0 Z M 2.32,1.734 C 1.602,1.438 0.855,1.051 0.082,0.574 l -0.34,0.844 C 0.453,1.934 1.129,2.355 1.77,2.684 l 0.55,-0.95 z m -4.851,2.555 3.152,0 0,3.07 -3.152,0 0,-3.07 z m 0.926,-2.848 -1.441,0 0,-2.227 1.441,0 0,2.227 z m -2.333,0 -1.359,0 0,-2.227 1.359,0 0,2.227 z m -3.433,-2.226 1.207,0 0,2.227 -1.207,0 0,-2.227 z m -0.938,3.269 7.641,0 0,-4.301 -7.641,0 0,4.301 z m -0.234,3.504 1.945,0 0,2.895 1.02,0 0,-2.895 2.027,0 0,2.461 6.047,0 0,-1.09 -0.855,0 0,-3.07 0.855,0 0,-1.09 -6.047,0 0,1.699 -4.992,0 0,1.09 z"
             style="fill:#231f20;fill-opacity:1;fill-rule:nonzero;stroke:none"
             id="path38"
             inkscape:connector-curvature="0" />
        </g>
        <path
           d="m 21.803,71.21 -0.609,0 0,6.129 0.609,0 0,-6.129 z"
           style="fill:#231f20;fill-opacity:1;fill-rule:nonzero;stroke:none"
           id="path40"
           inkscape:connector-curvature="0" />
        <g
           id="g42"
           transform="translate(20.3149,83.1748)">
          <path
             d="m 0,0 0,-5.719 c -0.906,0.047 -1.906,0.684 -3,1.91 -0.953,1.071 -1.598,1.739 -1.934,2.004 -0.406,0.344 -0.839,0.516 -1.3,0.516 -0.446,0 -0.797,-0.149 -1.055,-0.445 -0.227,-0.274 -0.34,-0.606 -0.34,-0.996 0,-0.961 0.527,-1.465 1.582,-1.512 L -6.199,-5.52 c -0.961,0.102 -1.645,0.504 -2.051,1.207 -0.258,0.454 -0.387,0.969 -0.387,1.547 0,1.008 0.293,1.75 0.879,2.227 C -7.336,-0.18 -6.832,0 -6.246,0 c 0.625,0 1.238,-0.23 1.84,-0.691 0.367,-0.282 0.89,-0.809 1.57,-1.582 0.727,-0.829 1.277,-1.364 1.652,-1.606 L -1.184,0 0,0 Z"
             style="fill:#231f20;fill-opacity:1;fill-rule:nonzero;stroke:none"
             id="path44"
             inkscape:connector-curvature="0" />
        </g>
        <g
           id="g46"
           transform="translate(20.3149,93.1123)">
          <path
             d="m 0,0 0,-1.289 -7.617,0 0,-0.106 7.617,-2.308 0,-1.266 -7.617,-2.308 0,-0.106 7.617,0 0,-1.277 -8.602,0 0,2.25 6.809,2.062 0,0.106 -6.809,2.097 0,2.145 L 0,0 Z"
             style="fill:#231f20;fill-opacity:1;fill-rule:nonzero;stroke:none"
             id="path48"
             inkscape:connector-curvature="0" />
        </g>
        <path
           d="m 21.803,93.675 -0.609,0 0,6.129 0.609,0 0,-6.129 z"
           style="fill:#231f20;fill-opacity:1;fill-rule:nonzero;stroke:none"
           id="path50"
           inkscape:connector-curvature="0" />
        <g
           id="g52"
           transform="translate(14.6196,104.3037)">
          <path
             d="m 0,0 c -0.516,0 -0.957,-0.125 -1.324,-0.375 -0.414,-0.289 -0.621,-0.672 -0.621,-1.148 0,-0.454 0.191,-0.817 0.574,-1.09 0.367,-0.274 0.808,-0.41 1.324,-0.41 0.539,0 0.977,0.14 1.313,0.421 0.328,0.282 0.492,0.653 0.492,1.114 0,0.476 -0.18,0.851 -0.539,1.125 C 0.898,-0.121 0.492,0 0,0 M 1.313,1.441 C 2.328,1.441 3.18,1.313 3.867,1.055 5.172,0.547 5.824,-0.371 5.824,-1.699 5.824,-2.598 5.531,-3.246 4.945,-3.645 4.617,-3.871 4.219,-4.023 3.75,-4.102 l -0.117,1.219 c 0.789,0.117 1.183,0.535 1.183,1.254 0,0.75 -0.457,1.262 -1.371,1.535 C 2.906,0.07 2.352,0.152 1.781,0.152 L 1.805,0.059 c 0.625,-0.454 0.937,-1.063 0.937,-1.829 0,-0.679 -0.25,-1.257 -0.75,-1.734 -0.523,-0.508 -1.207,-0.762 -2.051,-0.762 -0.851,0 -1.546,0.25 -2.086,0.75 -0.539,0.5 -0.808,1.149 -0.808,1.946 0,1.086 0.453,1.883 1.359,2.39 0.735,0.414 1.703,0.621 2.907,0.621"
             style="fill:#231f20;fill-opacity:1;fill-rule:nonzero;stroke:none"
             id="path54"
             inkscape:connector-curvature="0" />
        </g>
        <g
           id="g56"
           transform="translate(20.3149,112.1084)">
          <path
             d="m 0,0 0,-5.719 c -0.906,0.047 -1.906,0.684 -3,1.91 -0.953,1.071 -1.598,1.739 -1.934,2.004 -0.406,0.344 -0.839,0.516 -1.3,0.516 -0.446,0 -0.797,-0.149 -1.055,-0.445 -0.227,-0.274 -0.34,-0.606 -0.34,-0.996 0,-0.961 0.527,-1.465 1.582,-1.512 L -6.199,-5.52 c -0.961,0.102 -1.645,0.504 -2.051,1.207 -0.258,0.454 -0.387,0.969 -0.387,1.547 0,1.008 0.293,1.75 0.879,2.227 C -7.336,-0.18 -6.832,0 -6.246,0 c 0.625,0 1.238,-0.23 1.84,-0.691 0.367,-0.282 0.89,-0.809 1.57,-1.582 0.727,-0.829 1.277,-1.364 1.652,-1.606 L -1.184,0 0,0 Z"
             style="fill:#231f20;fill-opacity:1;fill-rule:nonzero;stroke:none"
             id="path58"
             inkscape:connector-curvature="0" />
        </g>
        <g
           id="g60"
           transform="translate(20.3149,120.4756)">
          <path
             d="M 0,0 0,-1.652 -3.035,-3.727 C -3.113,-3.773 -3.242,-3.844 -3.422,-3.938 -3.336,-4 -3.195,-4.098 -3,-4.23 l 3,-2.063 0,-1.629 -4.477,3.176 -4.125,-2.824 0,1.593 2.473,1.653 c 0.149,0.101 0.356,0.242 0.621,0.422 -0.094,0.054 -0.289,0.183 -0.586,0.386 l -2.508,1.735 0,1.523 L -4.5,-3.117 0,0 Z"
             style="fill:#231f20;fill-opacity:1;fill-rule:nonzero;stroke:none"
             id="path62"
             inkscape:connector-curvature="0" />
        </g>
        <g
           id="g64"
           transform="translate(20.3149,124.9287)">
          <path
             d="m 0,0 0,-1.266 -6.633,0 c 0.594,-0.625 1.035,-1.351 1.324,-2.179 l -1.136,0 c -0.157,0.39 -0.391,0.8 -0.703,1.23 -0.446,0.617 -0.942,1.047 -1.489,1.289 L -8.637,0 0,0 Z"
             style="fill:#231f20;fill-opacity:1;fill-rule:nonzero;stroke:none"
             id="path66"
             inkscape:connector-curvature="0" />
        </g>
        <g
           id="g68"
           transform="translate(20.3149,131.3979)">
          <path
             d="m 0,0 0,-1.266 -6.633,0 c 0.594,-0.625 1.035,-1.352 1.324,-2.18 l -1.136,0 c -0.157,0.391 -0.391,0.801 -0.703,1.231 -0.446,0.617 -0.942,1.047 -1.489,1.289 L -8.637,0 0,0 Z"
             style="fill:#231f20;fill-opacity:1;fill-rule:nonzero;stroke:none"
             id="path70"
             inkscape:connector-curvature="0" />
        </g>
        <g
           id="g72"
           transform="translate(20.3149,139.3315)">
          <path
             d="m 0,0 0,-5.719 c -0.906,0.047 -1.906,0.684 -3,1.91 -0.953,1.071 -1.598,1.739 -1.934,2.004 -0.406,0.344 -0.839,0.516 -1.3,0.516 -0.446,0 -0.797,-0.149 -1.055,-0.445 -0.227,-0.274 -0.34,-0.606 -0.34,-0.996 0,-0.961 0.527,-1.465 1.582,-1.512 L -6.199,-5.52 c -0.961,0.102 -1.645,0.504 -2.051,1.207 -0.258,0.454 -0.387,0.969 -0.387,1.547 0,1.008 0.293,1.75 0.879,2.227 C -7.336,-0.18 -6.832,0 -6.246,0 c 0.625,0 1.238,-0.23 1.84,-0.691 0.367,-0.282 0.89,-0.809 1.57,-1.582 0.727,-0.829 1.277,-1.364 1.652,-1.606 L -1.184,0 0,0 Z"
             style="fill:#231f20;fill-opacity:1;fill-rule:nonzero;stroke:none"
             id="path74"
             inkscape:connector-curvature="0" />
        </g>
        <g
           id="g76"
           transform="translate(20.3149,149.269)">
          <path
             d="m 0,0 0,-1.242 -3.773,0 c -0.485,0 -0.836,-0.047 -1.055,-0.141 -0.367,-0.156 -0.551,-0.469 -0.551,-0.937 0,-0.235 0.063,-0.465 0.188,-0.692 0.132,-0.226 0.293,-0.39 0.48,-0.492 0.336,-0.18 0.797,-0.269 1.383,-0.269 l 3.328,0 0,-1.243 -3.762,0 c -0.476,0 -0.828,-0.043 -1.054,-0.129 -0.375,-0.164 -0.563,-0.464 -0.563,-0.902 0,-0.266 0.063,-0.516 0.188,-0.75 0.132,-0.219 0.289,-0.379 0.468,-0.48 0.328,-0.164 0.856,-0.246 1.582,-0.246 l 3.141,0 0,-1.254 -6.223,0 0,1.136 0.879,0 -0.023,0.082 c -0.664,0.454 -0.996,1.09 -0.996,1.911 0,0.843 0.367,1.425 1.101,1.746 -0.734,0.523 -1.101,1.179 -1.101,1.968 0,1.289 0.734,1.934 2.203,1.934 L 0,0 Z"
             style="fill:#231f20;fill-opacity:1;fill-rule:nonzero;stroke:none"
             id="path78"
             inkscape:connector-curvature="0" />
        </g>
        <g
           id="g80"
           transform="translate(20.3149,159.2769)">
          <path
             d="m 0,0 0,-1.242 -3.773,0 c -0.485,0 -0.836,-0.047 -1.055,-0.141 -0.367,-0.156 -0.551,-0.469 -0.551,-0.937 0,-0.235 0.063,-0.465 0.188,-0.692 0.132,-0.226 0.293,-0.39 0.48,-0.492 0.336,-0.18 0.797,-0.269 1.383,-0.269 l 3.328,0 0,-1.243 -3.762,0 c -0.476,0 -0.828,-0.043 -1.054,-0.129 -0.375,-0.164 -0.563,-0.464 -0.563,-0.902 0,-0.266 0.063,-0.516 0.188,-0.75 0.132,-0.219 0.289,-0.379 0.468,-0.48 0.328,-0.164 0.856,-0.246 1.582,-0.246 l 3.141,0 0,-1.254 -6.223,0 0,1.136 0.879,0 -0.023,0.082 c -0.664,0.454 -0.996,1.09 -0.996,1.911 0,0.843 0.367,1.425 1.101,1.746 -0.734,0.523 -1.101,1.179 -1.101,1.968 0,1.289 0.734,1.934 2.203,1.934 L 0,0 Z"
             style="fill:#231f20;fill-opacity:1;fill-rule:nonzero;stroke:none"
             id="path82"
             inkscape:connector-curvature="0" />
        </g>
        <g
           id="g84"
           transform="translate(34.0151,246.6143)">
          <path
             d="m 0,0 0,-232.441 277.796,0 0,232.44 L 0,0 Z"
             style="fill:none;stroke:#00a650;stroke-width:0.5;stroke-linecap:butt;stroke-linejoin:miter;stroke-miterlimit:4;stroke-dasharray:none;stroke-opacity:1"
             id="path86"
             inkscape:connector-curvature="0" />
        </g>
        <path
           d="m 317.48,0 -289.135,0 0,260.787 289.135,0 0,-260.787 z"
           style="fill:none;stroke:#ed1c24;stroke-width:0.5;stroke-linecap:butt;stroke-linejoin:miter;stroke-miterlimit:4;stroke-dasharray:none;stroke-opacity:1"
           id="path88"
           inkscape:connector-curvature="0" />
      </g>
    </g>
  </g>
</svg>
