<?xml version="1.0" encoding="UTF-8" standalone="no"?>
<!-- Created with Inkscape (http://www.inkscape.org/) -->

<svg
   xmlns:dc="http://purl.org/dc/elements/1.1/"
   xmlns:cc="http://creativecommons.org/ns#"
   xmlns:rdf="http://www.w3.org/1999/02/22-rdf-syntax-ns#"
   xmlns:svg="http://www.w3.org/2000/svg"
   xmlns="http://www.w3.org/2000/svg"
   xmlns:sodipodi="http://sodipodi.sourceforge.net/DTD/sodipodi-0.dtd"
   xmlns:inkscape="http://www.inkscape.org/namespaces/inkscape"
   width="170.18968mm"
   height="124.99203mm"
   viewBox="0 0 603.03431 442.88513"
   id="svg2"
   version="1.1"
   inkscape:version="0.91 r13725"
   sodipodi:docname="drawing.svg">
  <defs
     id="defs4" />
  <sodipodi:namedview
     id="base"
     pagecolor="#ffffff"
     bordercolor="#666666"
     borderopacity="1.0"
     inkscape:pageopacity="0.0"
     inkscape:pageshadow="2"
     inkscape:zoom="1"
     inkscape:cx="302.23144"
     inkscape:cy="272.77033"
     inkscape:document-units="px"
     inkscape:current-layer="layer1"
     showgrid="false"
     showguides="false"
     inkscape:guide-bbox="true"
     inkscape:snap-bbox="true"
     inkscape:bbox-paths="true"
     inkscape:bbox-nodes="true"
     inkscape:snap-bbox-edge-midpoints="true"
     inkscape:snap-bbox-midpoints="true"
     inkscape:object-paths="true"
     inkscape:snap-intersection-paths="true"
     inkscape:object-nodes="true"
     inkscape:snap-smooth-nodes="true"
     inkscape:snap-midpoints="true"
     fit-margin-top="10"
     fit-margin-left="10"
     fit-margin-right="10"
     fit-margin-bottom="10"
     inkscape:window-width="1280"
     inkscape:window-height="729"
     inkscape:window-x="0"
     inkscape:window-y="0"
     inkscape:window-maximized="1"
     inkscape:snap-global="false">
    <inkscape:grid
       type="xygrid"
       id="grid4291"
       originx="-78.482844"
       originy="-238.56693" />
    <sodipodi:guide
       position="141.51716,401.43306"
       orientation="0,1"
       id="guide4293" />
    <sodipodi:guide
       position="301.51716,321.43306"
       orientation="0,1"
       id="guide4295" />
    <sodipodi:guide
       position="301.51716,201.43307"
       orientation="0,1"
       id="guide4297" />
    <sodipodi:guide
       position="261.51716,41.433075"
       orientation="0,1"
       id="guide4299" />
    <sodipodi:guide
       position="101.51716,421.43306"
       orientation="1,0"
       id="guide4301" />
    <sodipodi:guide
       position="501.51716,421.43306"
       orientation="1,0"
       id="guide4303" />
    <sodipodi:guide
       position="41.517157,321.43306"
       orientation="1,0"
       id="guide4305" />
    <sodipodi:guide
       position="561.51716,321.43306"
       orientation="1,0"
       id="guide4307" />
    <sodipodi:guide
       position="81.517157,181.43307"
       orientation="1,0"
       id="guide4309" />
    <sodipodi:guide
       position="521.51716,181.43307"
       orientation="1,0"
       id="guide4311" />
  </sodipodi:namedview>
  <metadata
     id="metadata7">
    <rdf:RDF>
      <cc:Work
         rdf:about="">
        <dc:format>image/svg+xml</dc:format>
        <dc:type
           rdf:resource="http://purl.org/dc/dcmitype/StillImage" />
        <dc:title />
      </cc:Work>
    </rdf:RDF>
  </metadata>
  <g
     inkscape:label="Layer 1"
     inkscape:groupmode="layer"
     id="layer1"
     transform="translate(-78.482843,-370.91013)">
    <path
       style="fill:none;fill-rule:evenodd;stroke:#a80030;stroke-width:14.17322835;stroke-linecap:round;stroke-linejoin:round;stroke-miterlimit:4;stroke-dasharray:none;stroke-opacity:1"
       d="m 180,412.36221 c 0,0 90,19.99999 200,19.99999 110,0 200,-19.99999 200,-19.99999"
       id="path4313"
       inkscape:connector-curvature="0"
       sodipodi:nodetypes="czc" />
    <path
       style="fill:none;fill-rule:evenodd;stroke:#a80030;stroke-width:14.17322835;stroke-linecap:round;stroke-linejoin:round;stroke-miterlimit:4;stroke-dasharray:none;stroke-opacity:1"
       d="m 120,478.37798 c 0,0 110,19.99999 260,19.99999 150,0 260,-19.99999 260,-19.99999"
       id="path4315"
       inkscape:connector-curvature="0"
       sodipodi:nodetypes="czc" />
    <path
       style="fill:none;fill-rule:evenodd;stroke:#a80030;stroke-width:14.17322835;stroke-linecap:round;stroke-linejoin:round;stroke-miterlimit:4;stroke-dasharray:none;stroke-opacity:1"
       d="m 159.86634,715.76891 0,-155.62557 440.26732,0 0,155.62557"
       id="path4149"
       inkscape:connector-curvature="0" />
    <path
       style="fill:none;fill-rule:evenodd;stroke:#a80030;stroke-width:14.17322835;stroke-linecap:round;stroke-linejoin:round;stroke-miterlimit:4;stroke-dasharray:none;stroke-opacity:1"
       d="m 463.98842,762.3429 0,-83.98842 c 0,0 0.0518,-55.99228 -83.98842,-55.99228 -84.04023,0 -83.98842,55.99228 -83.98842,55.99228 l 0,83.98842"
       id="path4317"
       inkscape:connector-curvature="0" />
    <path
       style="opacity:1;fill:none;fill-rule:evenodd;stroke:#a80030;stroke-width:14.17322826;stroke-linecap:round;stroke-linejoin:miter;stroke-miterlimit:4;stroke-dasharray:none;stroke-opacity:1"
       d="m 384.98284,800.29527 c -20.30309,-4.20134 -37.28099,-20.72028 -42.21863,-40.83777 -3.60636,-12.45162 -4.89194,-27.05014 2.54796,-38.39896 6.65838,-11.31606 17.83978,-20.53907 31.10363,-22.38124 11.19632,-1.04501 22.82039,2.49676 31.77107,9.24896 10.04419,7.94368 12.24505,22.57368 8.49983,34.26874 -2.82419,8.92483 -10.19631,17.31175 -20.0856,17.86261 -10.62679,1.17598 -23.17231,-4.90723 -25.5327,-16.01619 -1.56626,-8.24095 3.33668,-17.7458 11.78811,-19.80611"
       id="path4977"
       inkscape:connector-curvature="0" />
  </g>
</svg>
