<?xml version="1.0" encoding="UTF-8" standalone="no"?>
<!-- Created with Inkscape (http://www.inkscape.org/) -->

<svg
   xmlns:dc="http://purl.org/dc/elements/1.1/"
   xmlns:cc="http://creativecommons.org/ns#"
   xmlns:rdf="http://www.w3.org/1999/02/22-rdf-syntax-ns#"
   xmlns:svg="http://www.w3.org/2000/svg"
   xmlns="http://www.w3.org/2000/svg"
   xmlns:sodipodi="http://sodipodi.sourceforge.net/DTD/sodipodi-0.dtd"
   xmlns:inkscape="http://www.inkscape.org/namespaces/inkscape"
   width="64"
   height="92"
   viewBox="0 0 64.000004 91.999994"
   id="svg2"
   version="1.1"
   inkscape:version="0.91 r13725"
   sodipodi:docname="yingximen-v2.svg"
   inkscape:export-filename="/Users/medicalwei/Desktop/yingximen-v2.png"
   inkscape:export-xdpi="1800"
   inkscape:export-ydpi="1800">
  <defs
     id="defs4" />
  <sodipodi:namedview
     id="base"
     pagecolor="#ffffff"
     bordercolor="#666666"
     borderopacity="1.0"
     inkscape:pageopacity="0.0"
     inkscape:pageshadow="2"
     inkscape:zoom="4"
     inkscape:cx="27.379117"
     inkscape:cy="46.785826"
     inkscape:document-units="px"
     inkscape:current-layer="g4253"
     showgrid="true"
     showguides="true"
     inkscape:guide-bbox="true"
     inkscape:snap-bbox="false"
     inkscape:bbox-paths="true"
     inkscape:bbox-nodes="true"
     inkscape:snap-bbox-edge-midpoints="true"
     inkscape:snap-bbox-midpoints="true"
     inkscape:object-paths="true"
     inkscape:snap-intersection-paths="true"
     inkscape:object-nodes="true"
     inkscape:snap-smooth-nodes="true"
     inkscape:snap-midpoints="true"
     fit-margin-top="10"
     fit-margin-left="10"
     fit-margin-right="10"
     fit-margin-bottom="10"
     inkscape:window-width="1280"
     inkscape:window-height="708"
     inkscape:window-x="0"
     inkscape:window-y="1"
     inkscape:window-maximized="1"
     inkscape:snap-global="true"
     units="px"
     inkscape:snap-text-baseline="true">
    <inkscape:grid
       type="xygrid"
       id="grid4291"
       originx="0"
       originy="0"
       empspacing="4" />
    <sodipodi:guide
       position="60.000004,27.999998"
       orientation="0,1"
       id="guide4877" />
  </sodipodi:namedview>
  <metadata
     id="metadata7">
    <rdf:RDF>
      <cc:Work
         rdf:about="">
        <dc:format>image/svg+xml</dc:format>
        <dc:type
           rdf:resource="http://purl.org/dc/dcmitype/StillImage" />
        <dc:title></dc:title>
      </cc:Work>
    </rdf:RDF>
  </metadata>
  <g
     inkscape:label="Layer 1"
     inkscape:groupmode="layer"
     id="layer1"
     transform="translate(-77.381001,-712.96361)">
    <g
       id="g4253"
       transform="translate(-0.40219019,0)">
      <path
         sodipodi:nodetypes="czc"
         inkscape:connector-curvature="0"
         id="path4313"
         d="m 89.783181,734.9636 c 0,0 9.541158,2 20.000019,2 10.45887,0 20,-2 20,-2"
         style="fill:none;fill-rule:evenodd;stroke:#a80030;stroke-width:2.00000024;stroke-linecap:round;stroke-linejoin:round;stroke-miterlimit:4;stroke-dasharray:none;stroke-opacity:1" />
      <path
         sodipodi:nodetypes="czc"
         inkscape:connector-curvature="0"
         id="path4315"
         d="m 85.783181,740.9636 c 0,0 9.737932,2 24.000019,2 14.2621,0 24,-2 24,-2"
         style="fill:none;fill-rule:evenodd;stroke:#a80030;stroke-width:2.00000024;stroke-linecap:round;stroke-linejoin:round;stroke-miterlimit:4;stroke-dasharray:none;stroke-opacity:1" />
      <path
         inkscape:connector-curvature="0"
         id="path4149"
         d="m 89.783181,764.9636 0,-16 40.000019,0 0,16"
         style="fill:none;fill-rule:evenodd;stroke:#a80030;stroke-width:2.00000024;stroke-linecap:round;stroke-linejoin:round;stroke-miterlimit:4;stroke-dasharray:none;stroke-opacity:1"
         sodipodi:nodetypes="cccc" />
      <path
         inkscape:connector-curvature="0"
         id="path4317"
         d="m 117.7832,770.9636 0,-10 c 0,0 -0.008,-6 -8,-6 -7.99058,0 -8.00001,6 -8.00001,6 l 0,10"
         style="fill:none;fill-rule:evenodd;stroke:#a80030;stroke-width:2.00000024;stroke-linecap:round;stroke-linejoin:round;stroke-miterlimit:4;stroke-dasharray:none;stroke-opacity:1"
         sodipodi:nodetypes="ccscc" />
      <path
         inkscape:connector-curvature="0"
         id="path4977"
         d="m 109.7832,732.9636 c -2.86433,-0.59275 -5.25957,-2.92322 -5.95617,-5.76139 -0.50881,-1.75669 -0.69016,-3.81623 0.35945,-5.41731 0.93937,-1.59646 2.51684,-2.89767 4.38809,-3.15755 1.57958,-0.14749 3.21952,0.35224 4.48226,1.30484 1.41703,1.1207 1.72752,3.18467 1.19917,4.83463 -0.39843,1.2591 -1.4385,2.44233 -2.83367,2.52003 -1.49924,0.1658 -3.26916,-0.6923 -3.60216,-2.25954 -0.22087,-1.16263 0.47074,-2.50358 1.66306,-2.79426"
         style="opacity:1;fill:none;fill-rule:evenodd;stroke:#a80030;stroke-width:2.00000024;stroke-linecap:round;stroke-linejoin:round;stroke-miterlimit:4;stroke-dasharray:none;stroke-opacity:1" />
      <text
         xml:space="preserve"
         style="font-style:normal;font-weight:normal;font-size:4.00842428px;line-height:125%;font-family:Sans;text-align:center;letter-spacing:0px;word-spacing:0px;text-anchor:middle;fill:#a80030;fill-opacity:1;stroke:none;stroke-width:1px;stroke-linecap:butt;stroke-linejoin:miter;stroke-opacity:1"
         x="109.7832"
         y="784.96362"
         id="text4139"
         sodipodi:linespacing="125%"><tspan
           sodipodi:role="line"
           id="tspan4141"
           x="109.7832"
           y="784.96362"
           style="font-style:normal;font-variant:normal;font-weight:300;font-stretch:normal;font-size:9px;font-family:'Open Sans';-inkscape-font-specification:'Open Sans Light';text-align:center;text-anchor:middle;fill:#a80030;fill-opacity:1">DebConf<tspan
   style="font-style:normal;font-variant:normal;font-weight:normal;font-stretch:normal;font-size:9px;font-family:'Open Sans';-inkscape-font-specification:'Open Sans'"
   id="tspan4303"
   dx="0.50000006 -1.0000001">18</tspan></tspan><tspan
           sodipodi:role="line"
           x="109.7832"
           y="793.27039"
           style="font-style:normal;font-variant:normal;font-weight:normal;font-stretch:normal;font-size:6px;font-family:'Open Sans';-inkscape-font-specification:'Open Sans';text-align:center;text-anchor:middle;fill:#a80030;fill-opacity:1"
           id="tspan4301">Hsinchu, Taiwan</tspan></text>
    </g>
  </g>
</svg>
