<?xml version="1.0" encoding="UTF-8" standalone="no"?>
<!-- Created with Inkscape (http://www.inkscape.org/) -->
<svg xmlns:dc="http://purl.org/dc/elements/1.1/" xmlns:cc="http://creativecommons.org/ns#" xmlns:rdf="http://www.w3.org/1999/02/22-rdf-syntax-ns#" xmlns:svg="http://www.w3.org/2000/svg" xmlns="http://www.w3.org/2000/svg" xmlns:sodipodi="http://sodipodi.sourceforge.net/DTD/sodipodi-0.dtd" xmlns:inkscape="http://www.inkscape.org/namespaces/inkscape" width="432.09247" height="118.64957" id="svg3910" version="1.1" inkscape:version="0.48.3.1 r9886" sodipodi:docname="新建文档 4">
  <defs id="defs3912"/>
  <sodipodi:namedview id="base" pagecolor="#ffffff" bordercolor="#666666" borderopacity="1.0" inkscape:pageopacity="0.0" inkscape:pageshadow="2" inkscape:zoom="1" inkscape:cx="212.04622" inkscape:cy="34.591587" inkscape:document-units="px" inkscape:current-layer="layer1" showgrid="false" fit-margin-top="0" fit-margin-left="0" fit-margin-right="0" fit-margin-bottom="0" inkscape:window-width="1600" inkscape:window-height="848" inkscape:window-x="-8" inkscape:window-y="-8" inkscape:window-maximized="1"/>
  <metadata id="metadata3915">
    <rdf:RDF>
      <cc:Work rdf:about="">
        <dc:format>image/svg+xml</dc:format>
        <dc:type rdf:resource="http://purl.org/dc/dcmitype/StillImage"/>
        <dc:title/>
      </cc:Work>
    </rdf:RDF>
  </metadata>
  <g inkscape:label="Layer 1" inkscape:groupmode="layer" id="layer1" transform="translate(-162.95378,-448.3042)">
    <path inkscape:connector-curvature="0" d="m 167.86186,496.67375 c 0,0 0.21295,4.47199 -0.85181,7.45331 -1.06476,3.40723 0,5.96266 0.85181,8.09217 0.63885,2.12952 2.76837,1.06181 3.83313,-0.42886 1.27771,-1.49066 2.34247,-11.4994 0.85181,-19.37861 -1.49066,-8.09217 0,-17.46205 0,-17.46205 l -1.91657,-2.98133 c 0,0 3.62018,-1.49066 6.17561,-3.19428 2.55542,-1.91656 15.11958,-12.56416 24.48946,-12.77711 9.36988,-0.4259 10.64759,5.11085 11.28644,8.94398 0.63886,4.04608 1.06476,42.59037 1.06476,42.59037 l -7.24036,-5.96266 c 0,0 1.91657,1.49067 0,4.04609 -3.62018,-1.06476 -5.11084,-2.55542 -5.7497,-4.04609 -0.85181,-1.91656 -2.34247,2.34247 -1.91656,4.47199 0,0 -11.28645,0 -14.26778,2.76838 -2.76837,2.98132 -5.11084,1.91361 -6.6015,0 l -1.27772,-1.70362 c 0,0 -2.98132,3.19428 1.27772,6.17561 4.47198,2.98132 6.6015,0.63885 9.58283,-0.63886 2.98132,-1.49066 14.90663,-2.98133 17.03614,-2.55542 2.34248,0.21295 1.91657,-2.98133 3.83314,-1.27771 1.70361,1.91361 3.19428,5.53674 3.19428,8.94102 0,3.19427 3.19427,2.77133 5.53674,2.55542 2.12952,-0.42591 2.55543,0.63885 2.12952,-9.58283 -0.4259,-10.00578 -0.4259,-47.48531 -0.4259,-47.48531 0,0 -4.68494,-16.82319 -24.70241,-8.73102 -14.26778,7.66626 -21.93404,13.41596 -21.93404,13.41596 0,0 -3.62019,2.12952 -4.25904,0.42591 -0.85181,-1.91657 -1.91657,-4.04609 -1.91657,-4.04609 0,0 -3.19427,3.62018 -2.98132,6.17561 0.4259,2.55542 1.49066,5.53674 2.98132,7.24036 1.49067,1.91952 2.13248,15.76435 1.91657,18.95567 z" id="path3" style="fill:#4b0080;fill-opacity:1"/>
    <path inkscape:connector-curvature="0" d="m 182.34258,473.0361 c 0,0 0,2.76837 1.49067,3.83313 1.27771,1.06476 3.40723,-1.49066 5.7497,-2.76837 2.12951,-1.49067 3.40723,-0.42591 1.27771,1.70361 -2.12952,2.12952 -5.96265,5.3238 -8.09217,5.96265 -2.12952,0.85181 -4.04609,5.11085 -1.91657,5.7497 2.12952,0.85181 5.7497,0 8.30512,-2.12952 2.55542,-2.12952 2.12952,1.91657 -0.4259,4.04609 -2.55542,2.12952 -6.81446,4.47199 -6.81446,7.45331 0,2.76838 1.06476,3.83313 2.12952,3.62018 1.06476,-0.4259 5.53675,-4.04608 9.36988,-2.55542 3.83313,1.49066 3.62018,-3.19428 1.70361,-3.62018 -1.70361,-0.4259 -4.25903,-1.06476 -2.12951,-3.62018 2.12951,-2.34247 3.19427,-4.47199 5.11084,-3.19428 1.70361,1.49066 1.06476,6.1756 2.12952,7.24036 1.06476,1.06476 0.21295,5.7497 -3.19428,6.38856 -3.62018,0.63885 -7.24036,1.27771 -7.24036,1.27771 l 5.11084,1.06476 c 0,0 6.60151,-1.27771 8.94398,-4.04609 2.12952,-2.98132 2.55542,2.12952 2.55542,2.12952 0,0 2.34247,-4.25903 -0.4259,-9.36988 -2.98133,-4.89789 -7.66627,-5.7497 -8.73103,-14.69368 -1.06476,-8.94397 0.85181,-5.53674 1.91657,-5.53674 1.06476,0 0,-4.04609 0,-4.04609 0,0 -4.04609,-0.63885 -5.11084,0 0,0 0.8518,-8.09217 -2.34248,-10.00873 l -4.68494,2.55542 c 0,0 4.68494,2.55542 4.25904,8.51807 0,0 -6.38855,4.68494 -8.94398,4.04609 z" id="path5" style="fill:#4b0080;fill-opacity:1"/>
    <path inkscape:connector-curvature="0" d="m 187.02752,460.47194 c 0,0 -2.55542,11.07349 4.8979,18.1009 0,0 -4.68494,-7.45331 -3.19428,-18.73976 l -1.70362,0.63886 z" id="path7" style="fill:#4b0080;fill-opacity:1"/>
    <path inkscape:connector-curvature="0" d="m 198.31397,463.02736 c 0,0 4.68494,2.34247 6.1756,4.47199 1.49067,2.12952 4.8979,1.49066 4.25904,-1.27771 -0.63885,-2.98133 -4.68494,-4.68494 -10.43464,-3.19428 z" id="path9" style="fill:#4b0080;fill-opacity:1"/>
    <path inkscape:connector-curvature="0" d="m 202.57301,482.19303 -1.27771,-3.19428 c 0,0 0.21295,-3.62018 3.19427,-2.76838 2.76838,0.63886 2.76838,4.47199 2.55543,6.60151 -0.42591,2.34247 1.06476,5.7497 -2.98133,7.66627 0,0 0,-4.25904 -1.49066,-8.30512 z" id="path11" style="fill:#4b0080;fill-opacity:1"/>
    <path inkscape:connector-curvature="0" d="m 258.36639,457.91652 -0.85181,-2.12952 c 0,0 -1.49066,-1.27771 1.91657,-0.85181 3.19428,0.21295 1.91657,1.27771 1.91657,1.27771 0,0 1.91656,0.4259 3.83313,1.06476 2.12952,0.4259 6.60151,0.85181 4.89789,4.04609 -1.49066,2.98132 -2.76837,3.40722 -3.62018,2.98132 -0.63886,-0.21295 -6.60151,-0.63885 -8.09217,-6.38855 z" id="path13" style="fill:#4b0080;fill-opacity:1"/>
    <path inkscape:connector-curvature="0" d="m 250.06127,482.40598 -1.70362,-0.85181 c 0,0 -0.4259,-1.70362 3.19428,-1.49066 3.62018,0.21295 5.96265,0.63885 8.30512,-0.63886 2.34247,-1.49066 6.38856,-4.25904 7.45332,-5.32379 1.06476,-1.06476 0.8518,-1.27772 3.83017,-0.21296 2.98429,1.06476 4.89789,2.12952 2.98429,4.04609 -1.91657,2.12952 -4.68494,1.70361 -8.94398,5.32379 -4.04609,3.62019 -10.43464,9.15693 -11.4994,13.41597 -1.06476,4.04608 -1.91657,2.98133 1.06476,2.55542 2.76837,-0.63885 12.77711,-6.1756 15.33253,-8.09217 2.34247,-1.70361 5.96265,-4.25903 8.94102,-3.40723 2.77133,1.06476 5.1138,2.98133 3.83313,4.25904 -1.27771,1.27771 -6.38559,4.04608 -8.72806,5.53675 -2.13248,1.70361 -14.05483,11.70939 -14.05483,13.41596 0,1.91657 -0.21295,1.70362 2.55543,0.42886 2.98132,-1.28066 10.85758,-4.68494 13.41596,-4.68494 2.55838,0 4.89789,-0.8518 6.81446,0 1.70362,0.85477 4.25904,2.55543 2.55542,3.83314 -1.91361,1.27771 -5.11084,0.8518 -8.09217,0.4259 -2.76837,-0.21295 -9.57987,0.85181 -12.9871,2.77133 -3.62018,1.70066 -5.3238,2.12952 -7.87922,2.98133 -2.55542,0.85181 -4.68494,0.85181 -4.68494,0.85181 0,0 -1.70361,-0.85181 0.85181,-2.98133 2.55542,-1.91657 4.89789,-4.04609 6.38855,-5.32675 1.70362,-1.27771 9.58284,-11.07054 10.64759,-12.98711 1.06476,-1.70361 1.06476,-2.98132 -1.27771,-1.70361 -2.34247,1.27771 -12.13825,6.6015 -14.26777,6.38855 -1.91657,-0.21295 -0.4259,1.27771 -0.4259,1.27771 0,0 0.8518,1.06476 -1.27771,1.27771 -2.12952,0.42591 -4.68494,-0.4259 -4.04609,-2.34247 0.4259,-1.91656 1.70362,-3.83313 4.04609,-5.96265 2.34247,-1.91656 7.66626,-9.58283 7.87921,-11.28644 0.42591,-1.49067 -2.55542,-2.34248 -3.62018,-0.63886 -0.85476,1.48475 -4.90085,3.61427 -6.60446,-0.85772 z" id="path15" style="fill:#4b0080;fill-opacity:1"/>
    <path inkscape:connector-curvature="0" d="m 323.52965,448.97254 c 0,0 5.1138,4.25904 6.17856,6.1756 1.0618,1.70362 2.98133,4.25904 4.89494,2.76838 1.70361,-1.49067 3.62314,-2.55543 1.49066,-4.68494 -2.12952,-1.91657 -7.02741,-4.04609 -10.22169,-4.47199 -3.40723,-0.63886 -3.19428,-0.63886 -2.34247,0.21295 z" id="path17" style="fill:#4b0080;fill-opacity:1"/>
    <path inkscape:connector-curvature="0" d="m 328.42754,510.72857 c 0,0 -1.91361,3.19428 -3.40427,3.62314 -1.49362,0.63886 -6.17856,1.49066 -7.24036,-1.70361 -1.06476,-3.40723 2.55542,-3.62019 2.55542,-3.62019 v -0.85476 c 1.27771,-1.06476 5.53379,1.0618 7.02741,0.85181 1.48771,-0.21296 1.0618,1.70361 1.0618,1.70361 l 0,0 z m 15.97139,-2.34247 0,0 c -1.91657,-0.84885 -4.25904,-1.27771 -5.1138,-1.27771 -1.0618,0 -2.55246,-0.63886 -1.91361,-1.91657 0.85181,-1.27771 0.63886,-4.25608 0.21,-6.59855 -0.21,-2.34247 -2.98133,-4.68494 -4.04313,-5.11084 -1.06476,-0.4259 -2.34247,-1.06476 -0.85181,-2.34247 1.70362,-1.27771 6.59855,-12.35121 7.45331,-13.84187 1.06476,-1.49066 0,-3.40723 -2.12951,-4.25904 -2.34247,-0.63885 -4.04609,-0.21295 -5.3238,1.06476 -1.28067,1.27771 -6.60151,3.19428 -9.36988,3.62018 -2.98133,0.63886 -2.55542,0.63886 -4.47495,-1.06475 -1.70065,-1.49067 -2.34247,-2.76838 -2.55246,-0.63886 -0.21295,1.91657 1.27771,3.40723 1.27771,3.40723 1.91657,3.83313 5.3238,6.38855 7.45627,5.7497 2.55247,-0.63886 2.12952,-3.19428 4.04313,-0.42591 0.85181,1.06476 -1.49066,5.11085 -2.55247,7.45332 -0.8518,2.34247 -1.49066,6.1756 0.42591,6.60151 0,0 3.19428,0.63885 5.32379,0.8518 2.13248,0.21296 1.06476,4.8979 1.06476,4.8979 0,0 -1.06476,0.8518 -10.86054,0 -14.05482,1.27771 -11.9253,10.00873 -7.87922,11.9253 3.83314,1.70361 12.35121,0.42886 14.26778,-0.21295 2.12951,-0.85181 5.53674,-3.62018 6.1756,-4.89494 0.85181,-1.28067 3.83313,-0.64181 4.89493,0.21 1.06476,0.8518 6.17856,0 6.17856,0 0,0 -0.003,-2.13248 -1.70657,-3.19724 z" id="path19" style="fill:#4b0080;fill-opacity:1"/>
    <path inkscape:connector-curvature="0" d="m 348.23206,485.60025 -2.34247,-0.8518 c 0,0 -2.34247,-1.91657 3.19428,-1.49067 4.04609,2.34247 5.53675,2.76838 5.53675,2.76838 l 2.55246,0.85181 c 0,0 -0.20999,1.49066 -1.27771,2.76837 -1.06476,1.27771 -1.70361,2.76837 -1.70361,2.76837 0,0 -2.55247,-1.27771 -3.19428,-2.12952 -0.42295,-0.63885 -1.0618,-4.25903 -2.76542,-4.68494 z" id="path21" style="fill:#4b0080;fill-opacity:1"/>
    <path inkscape:connector-curvature="0" d="m 417.44141,483.89664 -7.2374,-0.4259 v -5.7497 c 0,0 2.12951,-1.70362 4.25608,-1.06476 1.91656,0.8518 3.19427,3.40723 3.19427,4.89789 0,1.70361 -0.21295,2.34247 -0.21295,2.34247 l 0,0 z m -10.86054,7.24332 0,0 c -0.85181,0.63886 -3.40427,2.12952 -6.3856,1.27771 v -3.83313 l 7.2374,-0.21295 c 0,-0.003 0.21296,2.33951 -0.8518,2.76837 l 0,0 z m -4.89789,-9.58579 0,0 c 1.49066,-1.27771 2.76837,-2.98133 4.25607,-3.19428 1.49067,-0.4259 1.28067,1.70362 1.28067,1.70362 v 3.40723 l -5.7497,0.21295 c 0,0 -1.06476,-0.85181 0.21296,-2.12952 l 0,0 z m 40.03494,30.87802 0,0 h -22.99584 c -0.63886,0.21295 -2.34247,-0.42591 -1.28067,-1.91361 3.62314,-1.70362 3.83609,-7.66627 3.83609,-7.66627 l 0.42591,-15.33253 c 0,0 0.4259,-10.86054 -1.70362,-12.77711 -1.91361,-2.12952 -6.81446,-2.34247 -10.64759,-0.85181 -4.04609,1.49066 -3.62314,0 -3.62314,0 0.64181,-2.76837 9.36988,-10.43464 11.50236,-11.9253 2.12952,-1.27771 3.40427,-2.76838 3.19427,-3.40723 -0.42886,-0.85181 -2.98428,-0.85181 -3.62313,-2.34247 -0.85181,-1.70362 -5.53675,-1.27771 -8.08922,0.21295 -2.55542,1.49066 -8.73102,4.25904 -13.41596,4.04609 -3.19428,-0.63886 -1.70362,1.91656 -1.70362,1.91656 l 1.70362,1.27771 c 1.91361,2.55543 4.47199,2.98133 5.53675,1.70362 0.8518,-1.27771 7.2374,-3.83314 8.73102,-5.11085 1.49066,-1.27771 1.91361,1.27771 -4.25904,7.66627 -6.1756,6.60151 -10.43464,22.14699 -10.64759,25.98012 -0.42886,4.04609 -1.06476,10.6476 -0.64181,11.7094 0.64181,1.06476 2.34247,0.8518 3.40723,-0.21295 1.06476,-1.06476 0.21295,-2.55543 0,-3.83314 -0.21295,-1.70361 1.70361,-3.40723 3.40723,-4.25903 1.49066,-0.63886 5.53675,-0.63886 5.53675,-0.63886 0,0 -0.42887,3.19428 -0.42887,5.53675 0,2.12952 4.25904,4.89789 4.25904,4.89789 l 0.63886,-11.28349 c 0,0 1.49066,-0.85181 1.91361,-1.49066 0.64181,-0.85181 2.34247,-2.12952 2.77133,-2.98133 0.21295,-0.63885 -1.27771,-1.06476 -3.19428,-0.4259 -1.70362,0.4259 -1.27771,-1.91657 -1.27771,-1.91657 0,0 2.34247,-1.70361 4.47199,-2.76837 1.91361,-1.06476 2.12952,1.49066 2.12952,1.49066 0,0 0,12.13826 -0.21296,17.46205 -0.63885,4.89789 -6.81446,4.89789 -8.51807,5.3238 -1.49066,0.4259 -9.36988,0 -11.28349,-0.42886 -1.70361,-0.63886 -10.43464,-0.85181 -10.43464,-0.85181 0.85181,-1.70066 -0.63885,-3.83018 -1.91361,-5.11085 -1.28067,-1.27771 -1.28067,-2.98132 -0.42886,-4.47198 0.63886,-1.49067 1.27771,-3.62019 -0.4259,-5.3238 -1.49067,-1.91657 -3.19428,-1.27771 -5.11381,-1.06476 -1.70361,0.21295 -0.63885,1.91657 -0.63885,1.91657 0,0 -1.27771,0.4259 0.63885,0.4259 2.12952,0 1.91657,1.91657 1.70362,3.83313 -0.4259,1.70362 -0.4259,3.83314 -0.4259,3.83314 0,0 2.34247,0 2.98132,1.27771 0.42591,1.27771 0,4.47199 0,4.47199 0,0 -1.28067,0.63885 -3.40723,0.4259 -2.12656,-0.21295 -3.83313,-0.21295 -4.04608,1.49066 -0.42591,1.91657 2.55542,3.62314 4.04608,4.04609 1.49067,0.21295 5.1138,-1.06476 5.1138,-1.06476 0,0 16.3973,-1.0618 24.06356,0 7.87922,2.77133 22.35994,3.83313 25.98013,2.77133 3.62018,-1.06476 7.66626,-1.49066 8.51807,-3.40723 0.63885,-1.70657 -2.12952,-0.85476 -2.12952,-0.85476 z" id="path23" style="fill:#4b0080;fill-opacity:1"/>
    <path inkscape:connector-curvature="0" d="m 378.04532,482.40598 c 0,0 3.19428,-0.42591 1.91361,-1.06476 -1.27771,-0.42591 -3.83313,-3.40723 -1.27771,-2.98133 2.55542,0.21295 6.1756,3.62018 5.53675,7.24036 -0.21295,1.49067 -2.34247,0.63886 -2.34247,0.63886 0,0 -1.27771,-1.27771 -2.98133,-1.06476 -1.91361,0.4259 -1.91361,-2.98132 -0.84885,-2.76837 z" id="path25" style="fill:#4b0080;fill-opacity:1"/>
    <path inkscape:connector-curvature="0" d="m 465.14265,479.85055 -2.34247,-0.4259 c 0,0 -1.28067,-1.49066 0.84885,-1.91657 1.91657,-0.4259 4.04609,-0.4259 5.96561,-0.4259 1.70362,0 6.38856,1.49066 8.30512,-3.19428 1.70362,-6.1756 0.85181,-8.94397 0.85181,-8.94397 0,0 -1.70361,-3.19428 -2.76837,-3.62018 0,0 -1.06476,-1.91657 1.70065,-2.12952 1.91657,0.21295 1.91657,-1.49067 2.77133,-1.49067 1.06476,0 2.98133,0.42591 2.98133,2.12952 l 2.98133,0.21295 c 0,0 1.70361,1.49067 -0.21,2.98133 -1.70361,1.70361 -1.06476,4.25904 -1.06476,4.25904 0,0 -1.91656,3.62018 -0.21295,6.6015 0,0 1.91657,0.21296 3.83313,-0.21295 2.13248,-0.63885 8.51808,-1.06476 11.71235,-3.19428 4.8979,-0.4259 7.87922,4.47199 4.8979,5.7497 -3.19428,1.27771 -3.40723,0 -6.17561,0.42591 -2.98132,0.63885 -7.66626,1.70361 -9.79578,2.34247 -2.34247,0.8518 -6.81742,0 -7.45627,3.19428 -0.85181,2.98132 -4.47199,18.73976 -11.4994,22.99879 -6.81742,4.25904 -8.94398,4.25904 -10.65055,3.83314 -1.91364,-0.64182 -1.49069,-2.34247 1.28067,-3.19724 0,0 11.07349,-9.79578 11.92234,-15.96843 1.06476,-6.1756 2.98429,-4.89789 2.98429,-4.89789 v -3.83313 c 0,0 -9.36988,0.21295 -10.86055,-1.27772 z" id="path27" style="fill:#4b0080;fill-opacity:1"/>
    <path inkscape:connector-curvature="0" d="m 488.14145,502.42345 c 0,0 -1.91361,0 -2.76837,-0.63886 -0.63886,-0.8518 -0.85181,-1.70361 1.91361,-2.12951 2.77133,-0.42591 8.94397,0 9.79874,0 0.85476,0 11.07349,-1.27772 13.41596,2.55542 2.34247,3.62018 1.91361,5.7497 1.0618,7.02445 -1.0618,1.28067 -4.68494,2.34247 -7.02741,2.13248 -2.34247,-0.42886 -7.45331,-1.28067 -7.45331,-1.28067 0,0 -0.21295,-1.91361 1.49066,-2.55247 1.91361,-0.85476 2.34247,-2.34247 1.0618,-2.98132 -1.27771,-0.42591 -2.76837,0.21295 -4.04312,-1.27771 -1.28067,-1.27771 -4.47495,-1.49067 -4.47495,-1.49067 l -2.97541,0.63886 z" id="path29" style="fill:#4b0080;fill-opacity:1"/>
    <path inkscape:connector-curvature="0" d="m 532.00953,484.5355 c 0,0 -3.62018,4.04608 -2.98133,6.38855 0.42591,2.34247 0.63886,7.02741 3.40723,8.94398 2.55247,2.12952 1.49067,1.70361 2.55247,0.4259 0.8518,-1.49066 2.77133,-2.76837 2.34247,-4.68494 -0.63886,-2.12952 -2.34247,-2.55542 -3.19428,-5.7497 -0.84885,-2.98132 -1.48771,-6.60151 -2.12656,-5.32379 z" id="path31" style="fill:#4b0080;fill-opacity:1"/>
    <path inkscape:connector-curvature="0" d="m 569.702,461.74965 c 0,0 2.34247,1.27771 2.12952,3.40723 -0.4259,2.12952 0,2.55542 1.28067,1.49066 1.27771,-1.06476 2.55247,-2.76837 1.70066,-3.62018 -0.84885,-0.63886 -3.62018,-1.91657 -3.62018,-1.91657 0,0 -2.76838,0.63886 -1.49067,0.63886 z" id="path33" style="fill:#4b0080;fill-opacity:1"/>
    <path inkscape:connector-curvature="0" d="m 561.60983,450.67615 -1.27771,-1.27771 c 0,0 0.42591,-1.49066 1.91361,-0.63885 1.49362,0.63885 3.83609,2.76837 4.04609,3.62018 0.21295,0.63885 1.28067,6.81446 0.64181,7.87922 -0.85181,1.06476 -2.13248,2.34247 -0.64181,3.62018 1.49066,1.27771 2.34247,2.12952 2.13247,4.04608 -0.21295,2.12952 -0.21295,3.62018 0.42591,3.40723 0.8518,-0.21295 1.91656,0.42591 0.8518,1.06476 -1.06476,0.4259 -2.34247,0.63886 -2.34247,0.63886 0,0 -1.06476,2.34247 -2.55542,4.04608 -1.49066,1.49066 -3.19428,1.70362 -3.83313,1.49066 -0.85181,-0.21295 -0.85181,-1.27771 1.49066,-2.12951 2.34247,-0.63886 3.19428,-2.55543 2.34247,-2.98133 -0.85181,-0.63886 -3.19428,-1.06476 -4.68494,-1.70361 -1.49066,-0.42591 -1.49066,-2.98133 -1.49066,-2.98133 0,0 0.85181,-1.27771 1.70361,0.21295 1.06476,1.49066 1.70362,2.12952 4.04609,1.27771 2.12952,-0.63885 2.12952,-3.19428 0.4259,-4.68494 -1.91361,-1.27771 -3.83313,-3.19428 -3.19428,-4.89789 0.85181,-1.49066 2.13248,-3.40723 1.91657,-5.53675 -0.21295,-2.12952 -1.91657,-4.47199 -1.91657,-4.47199 z" id="path35" style="fill:#4b0080;fill-opacity:1"/>
    <path inkscape:connector-curvature="0" d="m 562.46164,516.47827 c -0.85181,0.85181 -1.49066,-2.12952 -2.55246,-2.12952 l -2.13248,-0.63885 c 0,0 -0.4259,-1.28067 1.91657,-1.70362 2.34247,-0.21295 3.19428,-0.42886 3.62018,1.0618 0.21295,1.49362 0,2.55838 -0.85181,3.41019 l 0,0 z m 25.34127,-41.52561 0,0 c -2.98133,0 -2.34247,1.06476 -6.1756,2.55542 -4.04609,1.49067 -2.98133,-0.21295 -1.91657,-2.76837 -0.21295,-2.34247 2.34247,-8.73102 3.19428,-11.07349 0.63885,-2.34247 2.98132,-7.45332 2.77133,-9.79579 -0.21295,-2.34247 -2.77133,-4.47199 -5.96561,-4.68494 -2.98133,-0.21295 -3.62018,0.4259 -7.66627,3.40723 -4.25903,2.76837 -1.91656,3.83313 -1.27771,2.76837 0.42591,-1.06476 2.34247,-2.55542 5.53675,-3.40723 3.40427,-0.63885 2.34247,2.12952 2.12952,4.47199 -0.21295,2.34247 -2.34247,13.41597 -2.34247,13.41597 0,0 0.21295,2.34247 -2.77133,1.06476 -3.19428,-1.27771 -1.91361,1.70361 -0.21,1.70361 1.49067,0 3.83314,1.91657 0.21,5.11085 -5.11085,4.68494 -14.48073,4.89789 -16.18434,4.68494 -1.91657,-0.21295 -1.27771,-4.04609 -1.27771,-4.04609 0,0 0,-11.71235 -0.64182,-14.48072 -0.4259,-2.76838 -0.20999,-3.62018 -3.40427,-5.11085 -2.98132,-1.49066 -1.28067,1.70362 -0.21295,2.34247 1.06476,0.42591 0.21295,4.8979 0.21295,4.8979 v 11.71235 c 0,0 0.42591,2.55542 1.0618,2.55542 0.85181,0 1.06476,2.34247 -0.20999,3.19428 -1.28067,0.8518 -4.04609,0.8518 -4.25904,-1.27771 -0.4259,-2.12952 0.63886,-6.38856 -0.8518,-8.30513 -1.49067,-1.70361 -2.55247,-6.38855 -3.62019,-8.30512 -1.06476,-1.70361 -2.12951,0.42591 -2.12951,0.42591 v 11.71235 c 0,0 0.63885,2.55542 1.9136,3.62018 1.28067,1.06476 1.28067,2.55542 -2.55542,2.12952 -3.83313,-0.63886 -1.0618,2.12951 -1.0618,2.12951 0,0 2.12952,0.42591 4.04609,0.63886 2.12951,0.21295 14.69367,-0.4259 17.03614,-1.70361 2.34247,-1.27772 10.22169,-3.83314 10.22169,-3.83314 h 1.70362 c 0,0 6.1756,1.49067 0.20999,2.98133 -5.96265,1.49066 -8.72807,4.89789 -8.72807,4.89789 0,0 -4.47494,-0.4259 -6.6015,0.4259 -1.91657,1.06476 -0.85181,4.25904 -0.85181,5.3238 0,1.06476 2.55542,1.91657 4.89789,2.34247 2.34247,0.21295 3.62018,0.63886 0.63886,2.12952 -2.76838,1.70361 -0.63886,5.7497 -0.63886,5.7497 0,0 1.27771,2.12952 -0.63886,2.12952 -1.70361,0 -3.83609,2.55542 -7.87921,3.40723 -4.25904,0.63885 -2.55543,1.49066 -1.06476,1.70361 1.49066,0.21295 2.12952,1.27771 3.40723,2.34247 1.27771,1.06476 2.12952,3.83313 2.76837,5.7497 0.42886,1.70361 1.28067,5.53675 2.98133,5.74674 1.91656,0.42886 2.34247,-1.27771 2.34247,-1.27771 0,0 1.91656,-0.85181 4.68494,-1.91657 2.77133,-1.0618 2.55542,-3.83313 2.55542,-3.83313 l -0.21295,-8.51807 c 0,0 4.04608,-0.42591 5.96561,0.21295 1.70361,0.4259 2.98132,-0.21295 4.04608,-2.34247 1.0618,-2.12952 0,-5.11084 -1.70361,-5.96265 -1.91657,-1.06476 -2.55543,0.85181 -4.8979,1.27771 -2.34247,0.63885 -5.96265,0.85181 -6.81445,-0.4259 -0.63886,-1.06476 2.12951,-4.68494 3.62018,-5.7497 1.49066,-1.06476 4.47199,-4.68494 4.89789,-5.96266 0.63885,-1.27771 -1.49066,-2.34247 -4.04609,-2.12951 -2.55542,0.4259 -3.83313,0.4259 -5.11084,-0.21296 -1.28067,-0.4259 2.55246,-2.76837 5.11084,-3.19427 2.55543,-0.63886 8.73103,-3.40723 11.4994,-4.68494 2.98429,-1.27771 7.24037,-0.85181 7.66923,-2.34247 0.63589,-1.48771 -0.64182,-3.61723 -3.41019,-3.61723 z" id="path37" style="fill:#4b0080;fill-opacity:1"/>
    <path inkscape:connector-curvature="0" d="m 165.94529,559.06864 0.21295,-1.06476 h 0.63886 c 0.63886,0 1.06476,0 1.27771,-0.21295 0,0 0.21295,-0.21 0.4259,-0.42591 0,-0.42886 0.42591,-1.49066 0.63886,-3.40723 l 1.06476,-4.89789 c 0.63885,-4.04313 1.06476,-6.59855 1.27771,-7.66626 -0.4259,-0.85181 -0.85181,-1.27772 -1.06476,-1.49067 -0.4259,-0.21295 -0.85181,-0.21295 -1.49066,-0.21295 h -1.06476 l 0.21295,-1.0618 c 1.27771,0.21295 2.34247,0.21295 3.40723,0.21295 1.06476,0 1.91657,0 2.76837,-0.21295 0.21296,0.21295 0.63886,1.0618 1.27772,2.12952 0.4259,0.63885 0.63885,1.27771 1.06475,1.70361 2.76838,4.89789 5.3238,8.94398 7.24037,12.13826 l 0.8518,-5.3238 c 0.85181,-5.11084 1.27772,-8.08921 1.27772,-8.73102 0,-0.42591 0,-0.63886 -0.21296,-0.63886 -0.21295,-0.21295 -0.63885,-0.21295 -1.06476,-0.21295 h -1.27771 l 0.21296,-1.0618 c 1.49066,0.21295 2.76837,0.21295 3.83313,0.21295 1.06476,0 2.12952,0 3.19428,-0.21295 l -0.21296,1.0618 h -1.06476 c -0.63885,0 -0.8518,0 -1.06475,0.21295 -0.21296,0.42886 -0.42591,1.28067 -0.85181,3.19428 -0.63886,2.98132 -1.49066,7.45627 -2.34247,13.20301 -0.21295,1.28067 -0.42591,2.13248 -0.63886,2.77133 h -2.55542 l -2.34247,-4.25903 -7.02741,-11.71235 c -0.21295,2.34247 -0.63886,4.25903 -0.85181,5.53674 -0.85181,4.8979 -1.27771,7.66627 -1.27771,8.51808 0,0.21295 0.21295,0.42886 0.4259,0.63885 0.21296,0.21295 0.42591,0.21295 0.85181,0.21295 h 1.27771 v 1.06476 c -1.70361,-0.21295 -2.76837,-0.21295 -3.83313,-0.21295 -0.85181,-0.006 -1.91657,-0.006 -3.19428,0.20704 z" id="path39" style="fill:#4b0080;fill-opacity:1"/>
    <path inkscape:connector-curvature="0" d="m 200.65644,546.93038 c -0.4259,-0.21295 -0.85181,-0.21295 -1.27771,-0.4259 -0.4259,0 -0.85181,-0.21295 -1.06476,-0.21295 -0.63885,0 -1.27771,0.21295 -1.70361,0.63885 -0.63886,0.63886 -1.06476,1.70362 -1.70362,3.40723 -0.63885,2.55542 -1.06476,4.25608 -1.06476,5.53675 0,0.21295 0.21296,0.4259 0.21296,0.63886 0.21295,0.21295 0.21295,0.21295 0.4259,0.21295 0.21295,0 0.4259,0 0.63885,-0.21295 0.63886,-0.42591 1.27772,-1.06476 2.12952,-2.34247 0.85181,-1.06476 1.70362,-2.12952 2.12952,-3.40723 0.63886,-1.06181 1.06476,-2.12952 1.06476,-2.98133 l 0.21295,-0.85181 0,0 z m 3.83609,8.51808 0,0 0.21295,0.8518 c -2.34247,1.91657 -4.04608,2.98133 -5.11084,2.98133 -0.21295,0 -0.4259,-0.20999 -0.63886,-0.4259 -0.21295,-0.21296 -0.21295,-0.63886 -0.21295,-0.85181 0,-0.63886 0.21295,-2.34247 0.85181,-4.89789 l 0.4259,-1.0618 c -1.27771,1.70361 -2.12951,2.98132 -2.55542,3.62018 -0.63885,0.8518 -1.49066,1.49066 -2.12952,2.12951 -0.63885,0.64182 -1.27771,0.85181 -1.91656,1.28067 -0.42591,0 -0.85181,0.21 -1.06476,0.21 -0.63886,0 -0.85181,-0.21 -1.27771,-0.63886 -0.21295,-0.4259 -0.42591,-1.0618 -0.42591,-1.91361 0,-1.06476 0.21296,-2.55542 0.63886,-4.04608 0.4259,-1.49066 0.85181,-2.77133 1.27771,-3.62314 0.21295,-0.4259 0.85181,-1.0618 1.70361,-1.70066 1.49067,-1.06476 2.55543,-1.91656 3.19428,-2.13247 0.63886,-0.21 1.27771,-0.42591 2.12952,-0.42591 0.4259,0 1.06476,0 1.49066,0.21295 0.63886,0 1.06476,0.21 1.49067,0.42591 l 1.49066,-0.63886 0.4259,0.21295 c 0,0.21 -0.21295,0.63886 -0.4259,1.06181 l -0.4259,1.91656 -1.70362,6.81446 c 0,0.63886 -0.21295,1.06476 -0.21295,1.49066 0,0.21296 0.21295,0.42887 0.4259,0.42887 0.42295,-0.003 1.0618,-0.42887 2.34247,-1.28067 z" id="path41" style="fill:#4b0080;fill-opacity:1"/>
    <path inkscape:connector-curvature="0" d="m 215.98897,555.02255 0.21296,0.63886 -2.12952,1.70361 c -1.06476,0.85181 -1.91657,1.27771 -2.55542,1.49067 -0.63886,0.21295 -1.06476,0.4259 -1.49067,0.4259 -0.4259,0 -0.8518,-0.20999 -1.06476,-0.4259 -0.4259,-0.42591 -0.4259,-0.85181 -0.4259,-1.49067 0,-0.21295 0,-0.63885 0,-1.06476 0.21295,-0.4259 0.63886,-2.34247 1.27771,-5.32379 0.4259,-2.12952 0.63886,-3.40723 0.85181,-4.04609 h -3.19428 l 0.21295,-0.8518 c 0.85181,-0.21 1.91657,-0.42591 3.40723,-0.85181 0.21295,-1.91361 0.42591,-3.40427 0.42591,-4.25608 1.06475,-0.21295 2.34247,-0.63886 3.62018,-1.06476 l 0.4259,0.42886 c -0.63886,1.70066 -1.06476,3.40427 -1.49066,5.11085 h 1.49066 c 1.27771,0 1.91657,0 2.55542,-0.21296 l 0.21295,0.21296 -0.21295,0.63885 c -0.21295,0.42886 -0.21295,0.63886 -0.21295,1.06476 -0.85181,-0.21295 -1.70361,-0.21295 -2.55542,-0.21295 h -1.49066 c -0.42591,1.06476 -0.85181,2.98132 -1.27772,5.53675 -0.4259,1.91656 -0.63885,3.19427 -0.63885,3.62314 0,0.20999 0,0.4259 0.21295,0.63885 0.21295,0 0.21295,0.21 0.4259,0.21 0.42591,0 0.63886,-0.21 1.06476,-0.42591 0.85181,-0.43182 1.70362,-1.07067 2.34247,-1.49658 z" id="path43" style="fill:#4b0080;fill-opacity:1"/>
    <path inkscape:connector-curvature="0" d="m 223.44229,540.54183 c 0,-0.85181 0.21295,-1.27771 0.4259,-1.70066 0.42591,-0.42886 0.85181,-0.64181 1.49066,-0.64181 0.42591,0 0.85181,0 1.27772,0.42886 0.21295,0.21295 0.4259,0.63885 0.4259,1.0618 0,0.64181 -0.21295,1.28067 -0.63886,1.70362 -0.4259,0.42886 -0.8518,0.63885 -1.49066,0.63885 -0.4259,0 -0.85181,-0.20999 -1.06476,-0.4259 -0.4259,-0.21295 -0.4259,-0.63886 -0.4259,-1.06476 l 0,0 z m -4.68494,8.73102 0,0 -0.42591,-0.8518 c 2.34247,-1.70362 3.83314,-2.76838 4.47199,-2.98133 0.85181,-0.4259 1.49067,-0.63885 1.91657,-0.63885 0.21295,0 0.4259,0 0.63885,0.21295 0.21296,0.20999 0.21296,0.63885 0.21296,0.8518 0,0.63886 -0.21296,2.12952 -0.85181,4.25608 l -0.63886,1.49067 c -0.63885,2.55542 -1.06476,4.04608 -1.06476,4.68494 0,0.21295 0.21296,0.42886 0.42591,0.42886 0.21295,0 1.06476,-0.42886 2.55542,-1.28067 l 0.4259,0.64181 -2.98132,2.12952 c -0.85181,0.4259 -1.49066,0.63886 -1.91657,0.85181 -0.21295,0.20999 -0.4259,0.20999 -0.85181,0.20999 -0.21295,0 -0.63885,-0.20999 -0.8518,-0.4259 0,-0.21295 -0.21295,-0.63886 -0.21295,-1.27771 0,-0.64182 0.21295,-1.49067 0.4259,-2.77133 l 1.06476,-3.40428 c 0.4259,-1.70361 0.63885,-2.77133 0.63885,-3.40723 0,-0.21295 0,-0.21295 -0.21295,-0.21295 -0.21295,0 -0.4259,0 -0.85181,0.21295 -0.63885,0.42887 -1.27771,0.85477 -1.91656,1.28067 z" id="path45" style="fill:#4b0080;fill-opacity:1"/>
    <path inkscape:connector-curvature="0" d="m 232.17331,554.59665 c 0,1.06476 0.21296,1.91657 0.63886,2.55542 0.4259,0.42886 1.27771,0.63886 2.12952,0.63886 0.63885,0 1.06476,-0.21 1.70361,-0.63886 0.63886,-0.63885 1.06476,-1.70361 1.70362,-3.19428 0.4259,-1.49066 0.63885,-2.98132 0.63885,-4.68494 0,-1.0618 -0.21295,-1.91361 -0.63885,-2.34247 -0.63886,-0.63885 -1.27771,-0.8518 -1.91657,-0.8518 -0.63886,0 -1.27771,0.21295 -1.91657,0.63885 -0.4259,0.64181 -1.06476,1.49362 -1.49066,2.77133 -0.4259,1.91361 -0.85181,3.61723 -0.85181,5.10789 l 0,0 z m -3.40427,0.21295 0,0 c 0,-1.91361 0.42591,-3.83313 1.27771,-5.53675 0.42591,-1.0618 1.49067,-2.12951 2.98133,-2.98132 1.49066,-1.06476 2.98132,-1.49066 4.47199,-1.49066 1.06476,0 2.12952,0.21295 2.76837,0.4259 0.63886,0.42886 1.27771,0.85181 1.70362,1.49066 0.21295,0.64181 0.4259,1.49362 0.4259,2.55542 0,1.49067 -0.21295,2.77134 -0.63886,4.04609 -0.63885,1.27771 -1.06476,2.34247 -1.70361,2.98132 -0.85181,0.85181 -1.91657,1.49067 -3.40723,2.34247 -1.06476,0.42887 -2.12952,0.63886 -3.19428,0.63886 -1.70361,0 -2.76837,-0.4259 -3.62018,-1.0618 -0.64181,-0.85477 -1.06476,-1.91953 -1.06476,-3.41019 z" id="path47" style="fill:#4b0080;fill-opacity:1"/>
    <path inkscape:connector-curvature="0" d="m 245.16338,559.28159 -0.42591,-0.4259 c 0.21295,-0.42591 0.42591,-1.06476 0.63886,-1.49067 0.4259,-1.49066 0.63885,-2.55542 0.8518,-3.19427 0.42591,-1.27772 0.63886,-2.34247 0.85181,-3.62019 0.21295,-1.28066 0.21295,-2.13247 0.21295,-2.55542 0,-0.21295 0,-0.42886 -0.21295,-0.42886 -0.21295,0 -0.4259,0.21295 -0.63885,0.21295 -0.63886,0.42886 -1.06476,0.63886 -1.49067,1.06476 l -0.4259,-0.85181 2.12952,-1.49066 c 1.06476,-0.85181 1.70361,-1.28067 2.34247,-1.49066 0.4259,-0.21295 0.63885,-0.21295 1.06476,-0.21295 0.21295,0 0.4259,0 0.63885,0.21295 0,0.20999 0.21296,0.4259 0.21296,0.63885 0,0.21296 0,0.63886 -0.21296,1.06181 -0.21295,1.06476 -0.4259,2.13247 -0.63885,2.98428 l -0.63886,2.12952 c 0.85181,-1.06476 1.27771,-1.91657 1.49067,-2.34247 0.8518,-0.85181 1.70361,-1.70362 2.55542,-2.55542 1.06476,-0.85181 1.91656,-1.27772 2.76837,-1.70362 0.4259,-0.20999 1.06476,-0.4259 1.49066,-0.4259 0.42591,0 0.63886,0 0.85181,0.4259 0.21295,0.21295 0.42591,0.42886 0.42591,0.85181 0,0.63885 -0.42591,2.13247 -1.06476,4.04608 l -0.63886,2.77133 c -0.4259,1.49067 -0.63886,2.55247 -0.63886,3.40428 0,0.21295 0.21296,0.42886 0.42591,0.42886 0.21295,0 0.4259,0 0.63885,-0.21295 0.63886,-0.42591 1.06476,-0.63886 1.49067,-1.06476 l 0.4259,0.8518 c -1.70361,1.28067 -2.98133,1.91657 -3.62018,2.34247 -0.63886,0.42887 -1.27771,0.63886 -1.91657,0.63886 -0.4259,0 -0.63885,-0.20999 -0.8518,-0.4259 0,-0.21296 -0.21296,-0.63886 -0.21296,-1.27771 0,-0.42887 0.21296,-1.49067 0.63886,-2.77134 l 0.4259,-1.70361 c 0.42591,-1.49066 0.63886,-2.34247 0.85181,-2.76837 0.21295,-1.06476 0.4259,-1.91657 0.4259,-2.12952 0,-0.21296 -0.21295,-0.42886 -0.21295,-0.42886 -0.21295,-0.21296 -0.21295,-0.21296 -0.4259,-0.21296 -0.42591,0 -1.06476,0.42886 -1.91657,1.28067 -1.27771,1.0618 -2.12952,2.55542 -2.98132,4.25608 -0.63886,1.49066 -1.27771,3.40723 -1.49067,5.53675 -1.27771,0.21887 -2.34247,0.43182 -3.19427,0.64477 z" id="path49" style="fill:#4b0080;fill-opacity:1"/>
    <path inkscape:connector-curvature="0" d="m 271.35645,546.93038 c -0.4259,-0.21295 -0.85181,-0.21295 -1.27771,-0.4259 -0.21295,0 -0.63885,-0.21295 -1.06476,-0.21295 -0.63885,0 -1.27771,0.21295 -1.70361,0.63885 -0.42591,0.63886 -1.06476,1.70362 -1.49067,3.40723 -0.8518,2.55542 -1.06476,4.25608 -1.06476,5.53675 0,0.21295 0,0.4259 0.21296,0.63886 0,0.21295 0.21295,0.21295 0.21295,0.21295 0.21295,0 0.4259,0 0.63885,-0.21295 0.63886,-0.42591 1.49067,-1.06476 2.34247,-2.34247 0.85181,-1.06476 1.49067,-2.12952 2.12952,-3.40723 0.42591,-1.06181 0.85181,-2.12952 1.06476,-2.98133 v -0.85181 l 0,0 z m 3.62018,8.51808 0,0 0.42886,0.8518 c -2.55542,1.91657 -4.04608,2.98133 -4.89789,2.98133 -0.4259,0 -0.6359,-0.20999 -0.6359,-0.4259 -0.4259,-0.21296 -0.4259,-0.63886 -0.4259,-0.85181 0,-0.63886 0.4259,-2.34247 1.0618,-4.89789 l 0.21295,-1.0618 c -1.27771,1.70361 -1.91656,2.98132 -2.55542,3.62018 -0.63885,0.8518 -1.27771,1.49066 -2.12952,2.12951 -0.63885,0.64182 -1.27771,0.85181 -1.91656,1.28067 -0.42591,0 -0.63886,0.21 -1.06476,0.21 -0.42591,0 -0.85181,-0.21 -1.06476,-0.63886 -0.42591,-0.4259 -0.63886,-1.0618 -0.63886,-1.91361 0,-1.06476 0.21295,-2.55542 0.63886,-4.04608 0.4259,-1.49066 0.85181,-2.77133 1.49066,-3.62314 0.21295,-0.4259 0.63886,-1.0618 1.49066,-1.70066 1.49067,-1.06476 2.55543,-1.91656 3.19428,-2.13247 0.63886,-0.21 1.49066,-0.42591 2.12952,-0.42591 0.63886,0 1.06476,0 1.49066,0.21295 0.63886,0 0.84885,0.21 1.49067,0.42591 l 1.27771,-0.63886 0.4259,0.21295 c 0,0.21 -0.20999,0.63886 -0.20999,1.06181 l -0.63886,1.91656 -1.49362,6.81446 c -0.20999,0.63886 -0.20999,1.06476 -0.20999,1.49066 0,0.21296 0,0.42887 0.20999,0.42887 0.42295,-0.003 1.27475,-0.42887 2.33951,-1.28067 z" id="path51" style="fill:#4b0080;fill-opacity:1"/>
    <path inkscape:connector-curvature="0" d="m 285.19832,555.23551 0.42886,0.8518 -2.77133,1.70066 c -0.85181,0.64181 -1.70066,1.06476 -2.12952,1.28067 -0.21295,0.20999 -0.63885,0.20999 -0.8518,0.20999 -0.21296,0 -0.63886,-0.20999 -0.85181,-0.4259 0,-0.21295 -0.21,-0.63886 -0.21,-1.27771 0,-0.85181 0.21,-1.91657 0.42591,-3.40723 l 1.91656,-7.66627 c 0.42591,-1.28067 0.63886,-2.77133 1.06181,-4.47494 0.21295,-1.06181 0.21295,-1.70066 0.21295,-1.91361 0,-0.21295 0,-0.42886 -0.21295,-0.42886 -0.21296,-0.21 -0.85181,-0.21 -1.49067,-0.21 h -0.8518 l 0.21295,-0.85181 c 2.12952,-0.21295 4.04608,-0.63885 5.96265,-1.28066 l 0.42886,0.21295 -1.06476,4.25903 -2.12952,8.73103 c -0.63885,2.98132 -1.06476,4.68494 -1.06476,5.53675 0,0.20999 0.21295,0.4259 0.21295,0.4259 0,0.21295 0.21296,0.21295 0.21296,0.21295 0.20999,0 0.4259,0 0.63885,-0.21295 0.84885,-0.41999 1.27476,-0.84589 1.91361,-1.27179 z" id="path53" style="fill:#4b0080;fill-opacity:1"/>
    <path inkscape:connector-curvature="0" d="m 312.2432,555.23551 -0.21295,1.27771 c -1.70361,0.8518 -2.76837,1.49066 -3.62018,1.70361 -0.63885,0.4259 -1.28067,0.63886 -2.13247,0.85181 -0.84885,0 -1.70066,0.20999 -2.55247,0.20999 -2.55542,0 -4.68494,-0.63885 -5.96561,-2.12952 -1.49066,-1.27771 -2.12952,-3.19427 -2.12952,-5.74674 0,-2.55542 0.42886,-4.6879 1.49067,-6.6015 1.06476,-1.91657 2.77133,-3.40723 4.68494,-4.68495 2.12951,-1.06475 4.47199,-1.70361 6.6015,-1.70361 1.0618,0 2.12952,0.21295 3.19428,0.42886 1.0618,0.21 1.91361,0.4259 2.34247,0.84885 -0.42886,1.91657 -0.85181,3.62314 -1.06476,4.89789 h -0.85181 c 0,-0.4259 0,-0.63885 0,-1.0618 0,-0.42886 0,-1.06476 -0.21295,-1.91656 -0.63885,-0.42591 -1.27771,-0.85181 -1.91361,-1.06476 -0.8518,-0.21 -1.70361,-0.21 -2.77133,-0.21 -1.70065,0 -2.98132,0.21 -3.83313,0.85181 -1.0618,0.84885 -1.91361,1.91361 -2.55247,3.40427 -0.64181,1.91657 -1.06475,4.04609 -1.06475,6.38856 0,2.12951 0.4259,3.83313 1.49066,4.89789 1.06476,1.0618 2.34247,1.49066 4.25904,1.49066 1.0618,0 2.12951,-0.21295 2.98132,-0.42886 1.0618,-0.4259 2.12952,-1.0618 3.62018,-1.91361 l 0.21295,0.21 z" id="path55" style="fill:#4b0080;fill-opacity:1"/>
    <path inkscape:connector-curvature="0" d="m 315.22453,559.28159 -0.21295,-0.20999 c 0.42886,-1.91657 1.06476,-3.83314 1.49066,-6.17561 l 0.42886,-2.13247 c 0.42591,-1.70362 1.0618,-4.68494 1.70362,-8.73103 0.20999,-0.84885 0.4259,-1.49066 0.4259,-1.70066 0,-0.42886 -0.21295,-0.64181 -0.4259,-0.64181 -0.21295,-0.20999 -0.64182,-0.20999 -1.28067,-0.20999 h -0.85181 l 0.21295,-0.85181 c 0.85181,0 1.70362,-0.21295 2.98133,-0.42886 1.06476,-0.21 2.13247,-0.63886 2.98428,-0.85181 l 0.21,0.21295 c -0.42591,1.70362 -0.85181,3.83314 -1.49067,5.96561 l -1.70361,7.87922 c 1.49066,-2.34543 2.98428,-3.83609 4.68494,-4.89789 1.49066,-1.28067 2.77133,-1.70362 3.62314,-1.70362 0.4259,0 0.63885,0 0.85181,0.21295 0.20999,0.21 0.4259,0.63886 0.4259,1.06181 0,0.42886 0,0.8518 -0.21295,1.28066 0,0.21 -0.21,1.27772 -0.85181,2.98133 l -0.4259,1.91361 c -0.63886,2.34247 -1.06476,3.40723 -1.06476,3.83609 0,0.20999 0.21295,0.20999 0.21295,0.4259 0.21295,0.21296 0.21295,0.21296 0.42886,0.21296 0.20999,0 0.20999,0 0.63886,-0.21296 0.63885,-0.4259 1.27771,-0.8518 1.49066,-1.06476 l 0.4259,0.85181 c -2.76837,1.91657 -4.47199,2.98133 -5.32379,2.98133 -0.42591,0 -0.63886,-0.21 -0.85181,-0.42591 -0.21295,-0.21591 -0.42591,-0.63885 -0.42591,-1.06476 0,-0.4259 0.21,-1.0618 0.21,-1.70065 l 1.06476,-3.62314 0.42886,-1.27771 c 0,-0.63886 0.20999,-1.49067 0.4259,-2.77133 0.21296,-0.21 0.21296,-0.21 0.21296,-0.42591 0,-0.21591 -0.21296,-0.21295 -0.21296,-0.42886 0,0 -0.21295,0 -0.4259,0 -0.42886,0 -1.06476,0.21295 -1.91657,0.85181 -1.06476,1.06476 -2.12952,2.34247 -2.98132,4.25904 -0.85181,1.70361 -1.49067,3.62018 -1.70362,5.96265 -1.07067,0.21591 -2.13543,0.21591 -3.20019,0.64181 z" id="path57" style="fill:#4b0080;fill-opacity:1"/>
    <path inkscape:connector-curvature="0" d="m 336.51971,540.54183 c 0,-0.85181 0,-1.27771 0.42591,-1.70066 0.42886,-0.42886 0.8518,-0.64181 1.49066,-0.64181 0.42886,0 0.85181,0 1.28067,0.42886 0.20999,0.21295 0.4259,0.63885 0.4259,1.0618 0,0.64181 -0.21295,1.28067 -0.63885,1.70362 -0.42591,0.42886 -0.85181,0.63885 -1.49067,0.63885 -0.42886,0 -0.8518,-0.20999 -1.06476,-0.4259 -0.42886,-0.21295 -0.42886,-0.63886 -0.42886,-1.06476 l 0,0 z m -4.68494,8.73102 0,0 -0.42886,-0.8518 c 2.34247,-1.70362 3.83313,-2.76838 4.47495,-2.98133 0.85181,-0.4259 1.49066,-0.63885 1.91361,-0.63885 0.21295,0 0.42886,0 0.63885,0.21295 0,0.20999 0.21295,0.63885 0.21295,0.8518 0,0.63886 -0.4259,2.12952 -1.06475,4.25608 l -0.42591,1.49067 c -0.63885,2.55542 -1.06476,4.04608 -1.06476,4.68494 0,0.21295 0.21295,0.42886 0.42886,0.42886 0.21591,0 1.06181,-0.42886 2.55543,-1.28067 l 0.20999,0.64181 -2.98133,2.12952 c -0.63885,0.4259 -1.27771,0.63886 -1.70361,0.85181 -0.20999,0.20999 -0.63886,0.20999 -0.85181,0.20999 -0.20999,0 -0.63885,-0.20999 -0.85181,-0.4259 -0.20999,-0.21295 -0.20999,-0.63886 -0.20999,-1.27771 0,-0.64182 0.20999,-1.49067 0.4259,-2.77133 l 1.06476,-3.40428 c 0.42591,-1.70361 0.63886,-2.77133 0.63886,-3.40723 0,-0.21295 0,-0.21295 -0.21295,-0.21295 -0.21,0 -0.42591,0 -0.85181,0.21295 -0.63886,0.42887 -1.27771,0.85477 -1.91657,1.28067 z" id="path59" style="fill:#4b0080;fill-opacity:1"/>
    <path inkscape:connector-curvature="0" d="m 351.63929,546.93038 c -0.42886,-0.21295 -0.8518,-0.21295 -1.28066,-0.4259 -0.42591,0 -0.85181,-0.21295 -1.27772,-0.21295 -0.63885,0 -1.28066,0.21295 -1.70361,0.63885 -0.4259,0.63886 -0.85181,1.70362 -1.49066,3.40723 -0.63886,2.55542 -1.06476,4.25608 -1.06476,5.53675 0,0.21295 0,0.4259 0.21295,0.63886 0,0.21295 0.21295,0.21295 0.4259,0.21295 0,0 0.21295,0 0.42886,-0.21295 0.63886,-0.42591 1.49067,-1.06476 2.34247,-2.34247 0.85181,-1.06476 1.49067,-2.12952 2.12952,-3.40723 0.63886,-1.06181 0.85181,-2.12952 1.06476,-2.98133 l 0.21295,-0.85181 0,0 z m 3.62019,8.51808 0,0 0.4259,0.8518 c -2.34247,1.91657 -4.04313,2.98133 -5.11085,2.98133 -0.21295,0 -0.63885,-0.20999 -0.63885,-0.4259 -0.21295,-0.21296 -0.42886,-0.63886 -0.42886,-0.85181 0,-0.63886 0.42886,-2.34247 1.06476,-4.89789 l 0.21295,-1.0618 c -1.06476,1.70361 -1.91657,2.98132 -2.34247,3.62018 -0.85181,0.8518 -1.49066,1.49066 -2.13248,2.12951 -0.63885,0.64182 -1.49066,0.85181 -2.12952,1.28067 -0.4259,0 -0.63885,0.21 -0.8518,0.21 -0.63886,0 -1.06476,-0.21 -1.27771,-0.63886 -0.42887,-0.4259 -0.42887,-1.0618 -0.42887,-1.91361 0,-1.06476 0.21296,-2.55542 0.63886,-4.04608 0.42886,-1.49066 0.85181,-2.77133 1.28067,-3.62314 0.21295,-0.4259 0.85181,-1.0618 1.49066,-1.70066 1.70362,-1.06476 2.76838,-1.91656 3.40723,-2.13247 0.63886,-0.21 1.27771,-0.42591 1.91361,-0.42591 0.6359,0 1.06476,0 1.70361,0.21295 0.42591,0 1.06476,0.21 1.49067,0.42591 l 1.27771,-0.63886 0.42886,0.21295 c 0,0.21 0,0.63886 -0.21295,1.06181 l -0.63886,1.91656 -1.49066,6.81446 c -0.21295,0.63886 -0.21295,1.06476 -0.21295,1.49066 0,0.21296 0,0.42887 0.21295,0.42887 0.43182,-0.003 1.28363,-0.42887 2.34839,-1.28067 z" id="path61" style="fill:#4b0080;fill-opacity:1"/>
    <path inkscape:connector-curvature="0" d="m 361.64803,554.59665 c 0,1.06476 0.20999,1.91657 0.85181,2.55542 0.4259,0.42886 1.0618,0.63886 1.91361,0.63886 0.63885,0 1.28067,-0.21 1.70361,-0.63886 0.63886,-0.63885 1.06476,-1.70361 1.70362,-3.19428 0.4259,-1.49066 0.63885,-2.98132 0.63885,-4.68494 0,-1.0618 -0.21295,-1.91361 -0.63885,-2.34247 -0.42887,-0.63885 -1.06476,-0.8518 -1.91657,-0.8518 -0.63886,0 -1.27771,0.21295 -1.91361,0.63885 -0.42886,0.64181 -1.06476,1.49362 -1.49066,2.77133 -0.42591,1.91361 -0.85181,3.61723 -0.85181,5.10789 l 0,0 z m -3.40723,0.21295 0,0 c 0,-1.91361 0.42886,-3.83313 1.27771,-5.53675 0.64181,-1.0618 1.49362,-2.12951 2.98429,-2.98132 1.70065,-1.06476 3.19427,-1.49066 4.47198,-1.49066 1.06476,0 2.12952,0.21295 2.76838,0.4259 0.8518,0.42886 1.28067,0.85181 1.70361,1.49066 0.21295,0.64181 0.42886,1.49362 0.42886,2.55542 0,1.49067 -0.21295,2.77134 -0.64181,4.04609 -0.4259,1.27771 -1.0618,2.34247 -1.70066,2.98132 -0.8518,0.85181 -1.91656,1.49067 -3.40723,2.34247 -1.06476,0.42887 -2.12951,0.63886 -3.19427,0.63886 -1.70362,0 -2.76838,-0.4259 -3.62018,-1.0618 -0.64478,-0.85477 -1.07068,-1.91953 -1.07068,-3.41019 z" id="path63" style="fill:#4b0080;fill-opacity:1"/>
    <path inkscape:connector-curvature="0" d="m 383.36912,559.06864 0.21295,-1.06476 h 1.27771 c 0.63886,0 1.06476,0 1.06476,-0.21295 0.20999,0 0.4259,-0.42591 0.4259,-0.63886 0.21296,-0.4259 0.42886,-1.49066 0.85181,-3.62018 0.63886,-4.04608 1.27771,-8.51807 2.12952,-13.20301 h -1.49066 c -1.91361,0 -2.98133,0 -3.62019,0.20999 -0.42886,0.21295 -0.63885,0.85181 -0.8518,2.13248 l -0.21295,1.27771 h -1.27772 c 0.42591,-1.70362 0.63886,-3.40723 0.85181,-5.3238 h 0.21295 5.96266 4.25607 c 3.19428,0 5.32676,0 6.81742,0 h 0.21295 l -0.21295,1.49066 c -0.42886,1.49067 -0.63885,2.76838 -0.63885,3.83314 h -1.06476 c 0,-1.06476 0,-1.91657 0,-2.34247 0,-0.63886 0,-1.06476 -0.21296,-1.06476 -0.4259,-0.21 -1.0618,-0.21 -2.55542,-0.21 h -2.34247 c -0.4259,2.76838 -1.27771,7.45332 -2.34247,14.26482 -0.20999,1.28067 -0.4259,2.13248 -0.4259,2.55542 0,0.21295 0,0.42886 0.21295,0.63886 0.20999,0.21295 0.85181,0.21295 1.49066,0.21295 h 1.0618 v 1.06476 c -2.34247,-0.21295 -4.04312,-0.21295 -5.32379,-0.21295 -1.48771,0 -2.97837,0 -4.46903,0.21295 z" id="path65" style="fill:#4b0080;fill-opacity:1"/>
    <path inkscape:connector-curvature="0" d="m 399.97936,548.634 -0.21295,-0.85181 c 1.27771,-0.85181 2.34247,-1.70361 3.40723,-2.12952 0.85181,-0.63885 1.70361,-0.8518 2.12952,-0.8518 0.4259,0 0.63885,0 0.8518,0.21295 0,0.20999 0.21296,0.4259 0.21296,0.8518 0,0.63886 -0.21296,1.49067 -0.64182,2.76838 l -0.84885,3.19428 c -0.21295,1.06475 -0.42886,2.12951 -0.64181,3.40723 -0.20999,0.4259 -0.20999,0.63885 -0.20999,0.8518 0,0.21 0,0.42591 0.20999,0.63886 h 0.21295 c 0.21295,0 0.42886,0 0.85181,-0.21295 0.4259,-0.42591 1.06476,-1.06476 1.91657,-1.91657 0.84885,-1.0618 1.49066,-2.12952 1.9136,-3.19132 0.63886,-1.28067 1.06476,-2.34543 1.27772,-3.40723 0.21295,-1.06476 0.42886,-1.91657 0.42886,-2.55542 1.06476,0 2.12952,-0.21295 3.19427,-0.63886 l 0.42591,0.21295 c -0.63886,1.49067 -1.0618,3.40428 -1.70362,5.74675 -0.84885,2.98428 -1.27771,4.68494 -1.27771,5.53674 0,0.21296 0.21295,0.42887 0.42886,0.42887 0.21,0 0.42591,0 0.63886,-0.21296 0.63885,-0.4259 1.0618,-0.63885 1.49066,-1.06476 l 0.42591,0.85181 -2.76838,1.91657 c -0.63885,0.4259 -1.28067,0.63885 -1.49066,0.85181 -0.42886,0.20999 -0.85181,0.20999 -1.06476,0.20999 -0.21295,0 -0.4259,-0.20999 -0.63886,-0.4259 -0.21295,-0.21591 -0.21295,-0.42591 -0.21295,-0.85181 0,-0.4259 0.21295,-1.27771 0.42886,-2.55542 l 0.85181,-3.19428 c -1.06476,2.13248 -2.55542,3.83609 -4.47495,5.32675 -1.27771,1.0618 -2.34247,1.70066 -3.19427,1.70066 -0.42591,0 -0.85181,-0.20999 -1.0618,-0.4259 -0.21296,-0.42591 -0.21296,-0.85181 -0.21296,-1.49067 0,-0.21295 0,-0.63885 0,-0.8518 0,-0.42591 0.21296,-1.27771 0.63886,-2.55543 l 0.42886,-1.49066 c 0.63886,-2.34247 1.0618,-3.83313 1.0618,-4.47199 0,-0.21295 -0.21295,-0.21295 -0.21295,-0.42886 l -0.20999,-0.20999 c -0.43182,0 -1.07068,0.4259 -2.34839,1.27771 z" id="path67" style="fill:#4b0080;fill-opacity:1"/>
    <path inkscape:connector-curvature="0" d="m 416.5896,559.28159 -0.42886,-0.4259 c 0.21295,-0.42591 0.42886,-1.06476 0.63886,-1.49067 0.42886,-1.49066 0.63885,-2.55542 0.85181,-3.19427 0.42886,-1.27772 0.63885,-2.34247 0.8518,-3.62019 0.21295,-1.28066 0.42886,-2.13247 0.42886,-2.55542 0,-0.21295 -0.21295,-0.42886 -0.42886,-0.42886 -0.21591,0 -0.21295,0.21295 -0.63885,0.21295 -0.63886,0.42886 -1.06476,0.63886 -1.49067,1.06476 l -0.42886,-0.85181 2.13248,-1.49066 c 1.0618,-0.85181 1.91361,-1.28067 2.34247,-1.49066 0.4259,-0.21295 0.85181,-0.21295 1.0618,-0.21295 0.21295,0 0.42886,0 0.63886,0.21295 0.21295,0.20999 0.21295,0.4259 0.21295,0.63885 0,0.21296 0,0.63886 -0.21295,1.06181 -0.21,1.06476 -0.42591,2.13247 -0.63886,2.98428 l -0.63885,2.12952 c 0.8518,-1.06476 1.27771,-1.91657 1.70361,-2.34247 0.63886,-0.85181 1.49066,-1.70362 2.55542,-2.55542 0.85181,-0.85181 1.70362,-1.27772 2.55247,-1.70362 0.64181,-0.20999 1.06476,-0.4259 1.49066,-0.4259 0.42886,0 0.64181,0 0.85181,0.4259 0.21295,0.21295 0.42886,0.42886 0.42886,0.85181 0,0.63885 -0.42886,2.13247 -0.85181,4.04608 l -0.85181,2.77133 c -0.4259,1.49067 -0.63885,2.55247 -0.63885,3.40428 0,0.21295 0.21295,0.42886 0.4259,0.42886 0.21295,0 0.42886,0 0.63886,-0.21295 0.64181,-0.42591 1.28067,-0.63886 1.49362,-1.06476 l 0.4259,0.8518 c -1.70361,1.28067 -2.98132,1.91657 -3.40723,2.34247 -0.84885,0.42887 -1.49066,0.63886 -2.12952,0.63886 -0.21295,0 -0.63885,-0.20999 -0.63885,-0.4259 -0.21295,-0.21296 -0.42886,-0.63886 -0.42886,-1.27771 0,-0.42887 0.21295,-1.49067 0.64181,-2.77134 l 0.4259,-1.70361 c 0.42886,-1.49066 0.63886,-2.34247 0.85181,-2.76837 0.21295,-1.06476 0.42886,-1.91657 0.42886,-2.12952 0,-0.21296 -0.21295,-0.42886 -0.21295,-0.42886 0,-0.21296 -0.21295,-0.21296 -0.42886,-0.21296 -0.4259,0 -1.0618,0.42886 -1.91361,1.28067 -1.28067,1.0618 -2.13248,2.55542 -2.98133,4.25608 -0.64181,1.49066 -1.28066,3.40723 -1.49362,5.53675 -1.27475,0.21887 -2.33951,0.43182 -3.19132,0.64477 z" id="path69" style="fill:#4b0080;fill-opacity:1"/>
    <path inkscape:connector-curvature="0" d="m 436.39412,550.97647 c 0,0.85181 0.21296,1.70361 0.63886,2.12952 0.42886,0.42886 0.85181,0.64181 1.70361,0.64181 0.42887,0 1.06476,-0.21295 1.49067,-0.64181 0.42886,-0.21 0.85181,-0.85181 1.06476,-1.70066 0.4259,-0.85181 0.63885,-1.70362 0.63885,-2.77133 0,-0.85181 -0.21295,-1.49066 -0.63885,-1.91657 -0.42591,-0.4259 -1.06476,-0.63885 -1.70362,-0.63885 -1.0618,0 -1.70361,0.42886 -2.34247,1.49066 -0.63885,1.06476 -0.85181,2.12952 -0.85181,3.40723 l 0,0 z m 0.21296,8.09217 0,0 -1.49067,0.63885 c -0.63885,0.21296 -1.06476,0.63886 -1.27771,0.85181 -0.42886,0.4259 -0.64181,0.63886 -0.8518,1.0618 -0.21296,0.42886 -0.21296,0.85181 -0.21296,1.28067 0,0.85181 0.21296,1.49066 1.06476,2.12952 0.63886,0.63885 1.70066,0.85181 2.98133,0.85181 1.27771,0 2.34247,-0.21296 2.98132,-0.85181 0.63886,-0.63886 1.06476,-1.27771 1.06476,-1.91361 0,-0.42886 -0.21295,-0.85181 -0.42886,-1.28067 -0.4259,-0.4259 -1.27771,-1.0618 -2.55542,-1.91361 l -1.27475,-0.85476 0,0 z m -0.63886,-0.63886 0,0 c -0.63885,-0.42886 -0.85181,-0.8518 -0.85181,-1.49362 0,-0.20999 0.21296,-0.63885 0.42591,-0.84885 l 1.28067,-0.64181 c 0.4259,-0.20999 0.8518,-0.4259 1.0618,-0.85181 l -0.42591,0.21295 c -0.8518,0 -1.70361,-0.21295 -2.34247,-0.63885 -0.42886,-0.21295 -0.8518,-0.63886 -1.27771,-1.06476 -0.21295,-0.63886 -0.42886,-1.27771 -0.42886,-1.91361 0,-1.06476 0.21295,-1.91657 0.63886,-2.77133 0.42886,-0.85181 1.06476,-1.49066 1.49066,-1.91361 0.64181,-0.42886 1.70361,-0.85181 3.19428,-1.28067 0.63885,-0.4259 1.28067,-0.4259 1.70361,-0.4259 0.85181,0 1.49066,0.21295 2.12952,0.4259 0.42886,0 0.64181,0.21295 0.85181,0.21295 0.42886,0 0.63885,0 1.06476,0 h 2.98132 v 0.21295 l -0.21295,1.49067 c -0.63885,0 -1.27771,-0.21295 -2.34247,-0.21295 h -0.20999 c 0.20999,0.63885 0.20999,1.06475 0.20999,1.70361 0,0.85181 -0.20999,1.49066 -0.4259,2.34247 -0.42886,0.85181 -0.85181,1.49066 -1.27771,1.91657 -0.64182,0.4259 -1.49362,0.8518 -2.55543,1.27771 -1.06476,0.4259 -1.49066,0.63885 -1.91656,0.85181 -0.21,0.21295 -0.21,0.4259 -0.21,0.63885 0,0.21295 0,0.42886 0.21,0.63886 0.21295,0.21295 0.42886,0.42886 1.06476,0.8518 l 1.91361,1.49067 c 0.8518,0.63885 1.49362,1.06476 1.70361,1.70361 0.42886,0.42886 0.42886,1.06476 0.42886,1.70362 0,1.27771 -0.42886,2.34247 -1.70361,3.19427 -1.49067,1.27771 -3.40723,1.70362 -5.7497,1.70362 -2.12952,0 -3.62018,-0.21295 -4.68494,-1.06476 -1.0618,-0.63886 -1.49067,-1.49066 -1.49067,-2.55542 0,-0.63886 0.21296,-1.27771 0.63886,-2.12952 0.42886,-0.63886 1.28067,-1.06476 2.13248,-1.70362 0.4259,-0.20999 1.49066,-0.42294 2.98132,-1.0618 z" id="path71" style="fill:#4b0080;fill-opacity:1"/>
    <path inkscape:connector-curvature="0" d="m 475.15139,558.00388 -0.21295,1.06476 c -0.85181,-0.21295 -2.34247,-0.21295 -4.04609,-0.21295 -0.85181,0 -1.49066,0 -2.34247,0 h -0.21295 c 0,-0.21296 0,-0.63886 0.21295,-1.06476 0.21295,-1.0618 0.42886,-1.91361 0.42886,-2.76838 -1.49066,1.70362 -2.77133,2.76838 -4.25903,3.40723 -0.85181,0.63886 -1.70362,0.84885 -2.98133,0.84885 -1.49066,0 -2.77133,-0.4259 -3.83316,-1.49066 -0.85181,-0.85181 -1.49067,-1.91361 -1.49067,-3.40427 0,-0.42886 0.21,-1.28067 0.42591,-2.34247 l 0.63885,-4.68494 c 0.64182,-3.83314 1.06476,-6.17561 1.06476,-6.81742 0,-0.20999 -0.21295,-0.4259 -0.21295,-0.63885 -0.20999,-0.21296 -0.63885,-0.21296 -1.27771,-0.21296 h -1.28067 l 0.21295,-1.0618 4.47498,0.21295 c 0.84885,0 1.70066,-0.21295 2.34247,-0.21295 l 0.20999,0.21295 c -0.63885,1.91361 -1.0618,4.04313 -1.27771,5.96266 l -0.8518,5.32379 c -0.42591,2.12952 -0.63886,3.40723 -0.63886,4.04609 0,0.63885 0.4259,1.27771 0.85181,1.91656 0.63885,0.42591 1.49066,0.63886 2.34247,0.63886 0.63885,0 1.49066,0 2.12952,-0.42886 0.8518,-0.21 1.49066,-0.63886 2.12951,-1.49067 0.85181,-0.63885 1.28067,-1.0618 1.28067,-1.27771 0.21,-0.21295 0.42591,-1.28067 0.63886,-3.19427 l 1.0618,-6.38856 c 0.42886,-1.70361 0.42886,-2.98133 0.42886,-3.40723 0,-0.4259 0,-0.63885 -0.21295,-0.63885 -0.21295,-0.21296 -0.63886,-0.21296 -1.49066,-0.21296 h -1.06476 l 0.21295,-1.0618 c 1.70361,0.21295 2.98132,0.21295 4.04608,0.21295 l 5.3238,-0.21295 -0.21295,1.0618 h -0.84885 c -0.85181,0 -1.28067,0.21296 -1.49362,0.42886 -0.21,0.42591 -0.63886,2.12952 -1.0618,5.11085 l -1.06476,6.81742 c -0.63886,2.76837 -0.85181,4.25607 -0.85181,4.89493 0,0.42886 0.21295,0.64181 0.42886,0.85181 0.4259,0.21295 0.85181,0.21295 1.49066,0.21295 h 0.84294 z" id="path73" style="fill:#4b0080;fill-opacity:1"/>
    <path inkscape:connector-curvature="0" d="m 478.34567,559.28159 -0.42887,-0.4259 c 0.21296,-0.42591 0.42887,-1.06476 0.63886,-1.49067 0.42886,-1.49066 0.64181,-2.55542 0.85181,-3.19427 0.42886,-1.27772 0.64181,-2.34247 0.8518,-3.62019 0.21296,-1.28066 0.21296,-2.13247 0.21296,-2.55542 0,-0.21295 0,-0.42886 -0.21296,-0.42886 -0.20999,0 -0.4259,0.21295 -0.63885,0.21295 -0.63886,0.42886 -1.06476,0.63886 -1.49066,1.06476 l -0.42886,-0.85181 2.13247,-1.49066 c 1.0618,-0.85181 1.70362,-1.28067 2.34247,-1.49066 0.42591,-0.21295 0.63886,-0.21295 1.0618,-0.21295 0.21295,0 0.42886,0 0.64182,0.21295 0,0.20999 0.20999,0.4259 0.20999,0.63885 0,0.21296 0,0.63886 -0.20999,1.06181 -0.21296,1.06476 -0.42887,2.13247 -0.64182,2.98428 l -0.63885,2.12952 c 0.8518,-1.06476 1.28067,-1.91657 1.49066,-2.34247 0.85181,-0.85181 1.70361,-1.70362 2.55542,-2.55542 1.06476,-0.85181 1.91657,-1.27772 2.77133,-1.70362 0.42591,-0.20999 1.06181,-0.4259 1.49067,-0.4259 0.4259,0 0.63885,0 0.8518,0.4259 0.21,0.21295 0.42591,0.42886 0.42591,0.85181 0,0.63885 -0.42591,2.13247 -1.06476,4.04608 l -0.63886,2.77133 c -0.4259,1.49067 -0.63885,2.55247 -0.63885,3.40428 0,0.21295 0.21295,0.42886 0.4259,0.42886 0,0 0.42886,0 0.64181,-0.21295 0.63886,-0.42591 1.06181,-0.63886 1.49067,-1.06476 l 0.4259,0.8518 c -1.70361,1.28067 -2.98132,1.91657 -3.62018,2.34247 -0.63886,0.42887 -1.49066,0.63886 -1.91657,0.63886 -0.4259,0 -0.63885,-0.20999 -0.8518,-0.4259 0,-0.21296 -0.21,-0.63886 -0.21,-1.27771 0,-0.42887 0.21,-1.49067 0.63886,-2.77134 l 0.4259,-1.70361 c 0.42886,-1.49066 0.63886,-2.34247 0.85181,-2.76837 0.21295,-1.06476 0.21295,-1.91657 0.21295,-2.12952 0,-0.21296 0,-0.42886 0,-0.42886 -0.21295,-0.21296 -0.21295,-0.21296 -0.42886,-0.21296 -0.4259,0 -1.27771,0.42886 -1.91361,1.28067 -1.27771,1.0618 -2.12952,2.55542 -2.98133,4.25608 -0.64181,1.49066 -1.28066,3.40723 -1.49066,5.53675 -1.28067,0.21887 -2.34543,0.43182 -3.19723,0.64477 z" id="path75" style="fill:#4b0080;fill-opacity:1"/>
    <path inkscape:connector-curvature="0" d="m 499.4279,540.54183 c 0,-0.85181 0,-1.27771 0.4259,-1.70066 0.42886,-0.42886 0.85181,-0.64181 1.49066,-0.64181 0.42887,0 0.85181,0 1.28067,0.42886 0.21,0.21295 0.42591,0.63885 0.42591,1.0618 0,0.64181 -0.21296,1.28067 -0.63886,1.70362 -0.42886,0.42886 -0.85181,0.63885 -1.49066,0.63885 -0.42886,0 -0.85181,-0.20999 -1.06476,-0.4259 -0.42886,-0.21295 -0.42886,-0.63886 -0.42886,-1.06476 l 0,0 z m -4.68494,8.73102 0,0 -0.42886,-0.8518 c 2.34247,-1.70362 3.83313,-2.76838 4.47494,-2.98133 0.84885,-0.4259 1.49067,-0.63885 1.91361,-0.63885 0.21295,0 0.42886,0 0.63886,0.21295 0,0.20999 0.21295,0.63885 0.21295,0.8518 0,0.63886 -0.42591,2.12952 -1.06476,4.25608 l -0.4259,1.49067 c -0.63886,2.55542 -1.06476,4.04608 -1.06476,4.68494 0,0.21295 0.21295,0.42886 0.42886,0.42886 0.20999,0 1.0618,-0.42886 2.55246,-1.28067 l 0.21295,0.64181 -2.98132,2.12952 c -0.63886,0.4259 -1.27771,0.63886 -1.70362,0.85181 -0.21295,0.20999 -0.63885,0.20999 -0.8518,0.20999 -0.21,0 -0.63886,-0.20999 -0.85181,-0.4259 -0.21,-0.21295 -0.21,-0.63886 -0.21,-1.27771 0,-0.64182 0.21,-1.49067 0.42591,-2.77133 l 1.06476,-3.40428 c 0.4259,-1.70361 0.63885,-2.77133 0.63885,-3.40723 0,-0.21295 0,-0.21295 -0.21295,-0.21295 -0.21295,0 -0.4259,0 -0.85181,0.21295 -0.63885,0.42887 -1.27771,0.85477 -1.91656,1.28067 z" id="path77" style="fill:#4b0080;fill-opacity:1"/>
    <path inkscape:connector-curvature="0" d="m 503.89989,548.84695 1.27771,-3.83313 c 0.8518,-0.21295 1.49362,-0.21295 2.13247,-0.21295 0.42591,0 0.85181,0 1.0618,0 l 1.06476,0.21295 c 0.42591,0 0.63886,0 0.85181,0 1.06476,0 1.91361,-0.21295 2.34247,-0.42886 l 0.42591,0.63885 c -0.63886,0.64181 -1.27772,1.70362 -1.91361,2.77133 -0.63886,1.0618 -1.06476,2.34247 -1.49067,3.40723 -0.21295,1.0618 -0.42886,2.12952 -0.42886,3.19132 0,0.85181 0.21295,1.70362 0.42886,2.13248 0.42591,0.4259 0.85181,0.63885 1.49067,0.63885 0.63885,0 1.27771,-0.21295 1.91361,-0.8518 1.06475,-0.63886 1.70361,-1.91657 2.34247,-3.40723 0.64181,-1.70066 1.06475,-3.19428 1.06475,-4.47199 0,-0.42591 -0.21295,-0.85181 -0.4259,-1.27771 -0.21295,-0.21295 -0.42886,-0.42886 -0.85181,-0.42886 -0.42886,0 -0.64181,0.21295 -1.06476,0.42886 l -0.21295,-0.64182 c 0.42886,-0.20999 0.63886,-0.63885 1.06476,-1.0618 0.42591,-0.21295 0.63886,-0.63885 0.85181,-0.8518 0.21295,0 0.4259,0 0.63885,0 0.63886,0 1.27772,0.21295 1.70362,0.63885 0.21295,0.42886 0.4259,1.06476 0.4259,2.12952 0,1.70361 -0.4259,3.62314 -1.49066,5.53675 -1.0618,1.91656 -2.34247,3.62314 -3.83313,4.47494 -1.27771,1.0618 -2.55542,1.70066 -3.83314,1.70066 -1.06476,0 -1.91656,-0.4259 -2.55542,-1.0618 -0.63885,-0.85181 -0.85181,-1.70362 -0.85181,-2.98133 0,-0.8518 0,-1.70361 0.21296,-2.55542 0.42886,-0.85181 0.8518,-1.49066 1.27771,-2.34247 0.64181,-0.85181 1.70361,-2.12952 3.40723,-3.83313 -0.63886,0.20999 -1.27771,0.4259 -1.91657,0.4259 h -1.70066 c -0.42886,0 -1.06476,0 -1.49066,0 -0.42886,0.63886 -0.85181,1.49066 -1.06476,1.91657 h -0.85476 z" id="path79" style="fill:#4b0080;fill-opacity:1"/>
    <path inkscape:connector-curvature="0" d="m 524.55621,552.25418 c 1.49067,-0.4259 2.55247,-0.84885 3.19428,-1.27771 0.63886,-0.42591 1.0618,-0.85181 1.49066,-1.49066 0.42591,-0.85181 0.63886,-1.27772 0.63886,-1.91657 0,-0.4259 -0.21295,-0.85181 -0.42886,-1.0618 -0.21,-0.21295 -0.63886,-0.21295 -1.0618,-0.21295 -0.42886,0 -0.85181,0 -1.49067,0.4259 -0.42886,0.21295 -0.64181,0.85181 -1.06475,1.49362 -0.42591,0.84589 -0.85181,2.1236 -1.27772,4.04017 l 0,0 z m 6.81446,3.19428 0,0 0.21296,0.64181 -2.34248,1.70066 c -1.06475,0.42886 -1.91656,0.8518 -2.77133,1.06476 -0.63885,0.21295 -1.27771,0.4259 -1.91361,0.4259 -1.06475,0 -2.13247,-0.4259 -2.77133,-1.0618 -0.63885,-0.42886 -0.8518,-1.49066 -0.8518,-2.55542 0,-1.27771 0.21295,-2.98133 0.8518,-4.68494 0.42886,-1.27772 0.85181,-2.34247 1.70362,-2.98133 0.63885,-0.85181 1.70361,-1.70361 3.40723,-2.55542 1.0618,-0.42591 1.91361,-0.63886 2.76837,-0.63886 1.06476,0 1.70362,0.21295 2.12952,0.63886 0.64181,0.42886 0.85181,1.06476 0.85181,1.70361 0,0.85181 -0.21,1.70362 -0.85181,2.34247 -0.4259,0.85181 -1.27771,1.49067 -2.55247,2.12952 -1.28066,0.63886 -2.98428,1.06476 -4.68494,1.28067 -0.21295,0.85181 -0.42886,1.49066 -0.42886,2.12952 0,0.63885 0.21296,1.27771 0.63886,1.70361 0.42886,0.42591 0.85181,0.42591 1.70361,0.42591 0.42886,0 1.28067,0 2.12952,-0.42591 0.85477,-0.21886 1.70657,-0.85772 2.77133,-1.28362 z" id="path81" style="fill:#4b0080;fill-opacity:1"/>
    <path inkscape:connector-curvature="0" d="m 534.56495,559.28159 -0.21295,-0.4259 c 0.42886,-1.70362 1.06476,-3.40723 1.49066,-5.3238 0.21295,-0.85181 0.42886,-2.12952 0.63886,-3.40723 0,-0.85181 0.21295,-1.49066 0.21295,-1.91361 0,-0.21295 -0.21295,-0.42886 -0.21295,-0.42886 0,-0.21295 -0.21,-0.21295 -0.21,-0.21295 -0.21295,0 -0.42886,0 -0.64181,0.21295 -0.4259,0.21295 -1.0618,0.63886 -1.49066,1.06476 l -0.42591,-0.63886 c 2.76838,-2.34247 4.68494,-3.40722 5.53675,-3.40722 0.21295,0 0.4259,0 0.4259,0.21295 0.21296,0.20999 0.21296,0.4259 0.21296,0.8518 0,0.42591 -0.21296,2.12952 -0.85181,4.89494 l -0.21295,0.85181 h 0.21295 c 0.63885,-1.70362 1.28067,-3.19428 2.12952,-4.25608 0.64181,-1.06476 1.49362,-1.91657 1.91656,-2.13248 0.42591,-0.20999 0.85181,-0.4259 1.49067,-0.4259 0.21295,0 0.42886,0 0.8518,0.21295 -0.4259,1.0618 -0.63885,2.55246 -0.8518,3.83313 l -0.21295,0.21 c -0.42591,-0.42591 -1.06181,-0.63886 -1.49067,-0.63886 -0.8518,0 -1.70361,0.63886 -2.34247,1.91657 -1.27771,1.91361 -2.12952,4.68494 -2.76837,8.30512 -1.27771,0.21887 -2.34247,0.43182 -3.19428,0.64477 z" id="path83" style="fill:#4b0080;fill-opacity:1"/>
    <path inkscape:connector-curvature="0" d="m 544.99959,558.42978 c 0.20999,-1.28067 0.4259,-2.55542 0.63886,-3.83609 h 0.8518 v 1.28067 c 0.42591,0.63886 1.06181,1.0618 1.70066,1.27771 0.64181,0.42886 1.49362,0.42886 2.13248,0.42886 0.8518,0 1.49066,0 1.91361,-0.42886 0.42886,-0.4259 0.8518,-1.0618 0.8518,-1.70361 0,-0.42591 -0.21295,-0.85181 -0.63885,-1.27771 -0.21295,-0.21296 -0.85181,-0.63886 -1.49067,-0.63886 l -1.27771,-0.42886 c -1.06476,-0.21 -1.91656,-0.4259 -2.34247,-0.85181 -0.64181,-0.63885 -1.06476,-1.49066 -1.06476,-2.34247 0,-1.0618 0.42591,-2.12952 1.27772,-2.76837 1.91656,-1.49067 3.62313,-2.34247 5.53674,-2.34247 0.42886,0 1.06476,0 1.70362,0.21295 0.4259,0.20999 1.06476,0.4259 1.70361,0.63885 -0.42886,1.06181 -0.42886,2.12952 -0.63885,3.40428 h -0.85181 l -0.21295,-1.27771 c -0.63886,-0.63886 -1.06476,-0.85181 -1.70362,-1.06476 -0.4259,-0.21 -1.0618,-0.42591 -1.49066,-0.42591 -0.85181,0 -1.27771,0.21295 -1.70361,0.63886 -0.42591,0.42886 -0.63886,0.85181 -0.63886,1.49066 0,0.63886 0.21295,1.06476 0.42886,1.49066 0.4259,0.21296 1.27771,0.64182 2.34247,0.64182 l 0.84885,0.20999 c 1.06476,0.21295 1.91657,0.64181 2.34247,1.06476 0.42886,0.63886 0.64181,1.27771 0.64181,2.12952 0,0.85181 -0.21295,1.70361 -0.8518,2.34247 -0.63886,0.63885 -1.28067,1.28067 -2.34247,1.91657 -1.06476,0.63885 -2.34247,1.0618 -3.62314,1.0618 -0.63886,0 -1.27771,0 -1.70066,-0.21 -0.63885,0.006 -1.27771,-0.20703 -2.34247,-0.63294 z" id="path85" style="fill:#4b0080;fill-opacity:1"/>
    <path inkscape:connector-curvature="0" d="m 563.5264,540.54183 c 0,-0.85181 0.21295,-1.27771 0.4259,-1.70066 0.42887,-0.42886 0.85181,-0.64181 1.49067,-0.64181 0.42886,0 0.8518,0 1.28067,0.42886 0.21295,0.21295 0.4259,0.63885 0.4259,1.0618 0,0.64181 -0.20999,1.28067 -0.63886,1.70362 -0.4259,0.42886 -0.8518,0.63885 -1.49066,0.63885 -0.4259,0 -0.85181,-0.20999 -1.06476,-0.4259 -0.42886,-0.21295 -0.42886,-0.63886 -0.42886,-1.06476 l 0,0 z m -4.68494,8.73102 0,0 -0.42886,-0.8518 c 2.34247,-1.70362 3.83313,-2.76838 4.47495,-2.98133 0.8518,-0.4259 1.49066,-0.63885 1.9136,-0.63885 0.21296,0 0.42887,0 0.63886,0.21295 0.21295,0.20999 0.21295,0.63885 0.21295,0.8518 0,0.63886 -0.21295,2.12952 -0.85181,4.25608 l -0.63885,1.49067 c -0.63886,2.55542 -1.06476,4.04608 -1.06476,4.68494 0,0.21295 0.21295,0.42886 0.42886,0.42886 0.21591,0 1.06476,-0.42886 2.55542,-1.28067 l 0.42591,0.64181 -2.98133,2.12952 c -0.85181,0.4259 -1.49066,0.63886 -1.91657,0.85181 -0.20999,0.20999 -0.4259,0.20999 -0.8518,0.20999 -0.21,0 -0.63886,-0.20999 -0.84885,-0.4259 0,-0.21295 -0.21295,-0.63886 -0.21295,-1.27771 0,-0.64182 0.21295,-1.49067 0.4259,-2.77133 l 1.06476,-3.40428 c 0.4259,-1.70361 0.63885,-2.77133 0.63885,-3.40723 0,-0.21295 0,-0.21295 -0.21295,-0.21295 -0.20999,0 -0.4259,0 -0.85181,0.21295 -0.64181,0.42887 -1.28066,0.85477 -1.91952,1.28067 z" id="path87" style="fill:#4b0080;fill-opacity:1"/>
    <path inkscape:connector-curvature="0" d="m 577.36827,555.02255 0.42886,0.63886 -2.13247,1.70361 c -1.27772,0.85181 -2.12952,1.27771 -2.55247,1.49067 -0.64181,0.21295 -1.06476,0.4259 -1.49066,0.4259 -0.64182,0 -0.85181,-0.20999 -1.28067,-0.4259 -0.21295,-0.42591 -0.4259,-0.85181 -0.4259,-1.49067 0,-0.21295 0,-0.63885 0.20999,-1.06476 0,-0.4259 0.42886,-2.34247 1.06476,-5.32379 0.63885,-2.12952 0.85181,-3.40723 0.85181,-4.04609 h -3.19428 l 0.21295,-0.8518 c 1.0618,-0.21 2.12952,-0.42591 3.40427,-0.85181 0.42886,-1.91361 0.64182,-3.40427 0.64182,-4.25608 0.8518,-0.21295 2.12951,-0.63886 3.62018,-1.06476 l 0.21295,0.42886 c -0.42886,1.70066 -0.85181,3.40427 -1.28067,5.11085 h 1.49066 c 1.06476,0 1.91657,0 2.55542,-0.21296 v 0.21296 l -0.21295,0.63885 c 0,0.42886 0,0.63886 -0.20999,1.06476 -0.85181,-0.21295 -1.70362,-0.21295 -2.34247,-0.21295 h -1.70362 c -0.21295,1.06476 -0.63885,2.98132 -1.27771,5.53675 -0.42886,1.91656 -0.64181,3.19427 -0.64181,3.62314 0,0.20999 0.21295,0.4259 0.21295,0.63885 0.21295,0 0.42886,0.21 0.63886,0.21 0.21295,0 0.63885,-0.21 1.06476,-0.42591 0.64477,-0.43182 1.49657,-1.07067 2.13543,-1.49658 z" id="path89" style="fill:#4b0080;fill-opacity:1"/>
    <path inkscape:connector-curvature="0" d="m 579.49779,564.17948 1.70361,-1.27771 0.42886,0.21295 c 0,0.21 0,0.42591 0,0.42591 0,0.63885 0.21,1.27771 0.63886,1.70361 0.21295,0.21295 0.85181,0.4259 1.27771,0.4259 0.63886,0 1.06476,0 1.49066,-0.4259 0.42887,-0.21295 0.85181,-0.85181 1.28067,-1.49066 0.42591,-0.85181 0.85181,-1.91657 1.27771,-3.40723 0.63886,-2.12952 1.27771,-4.25608 1.70362,-6.38856 -1.06476,1.49067 -1.91657,2.55543 -2.76838,3.40723 -0.64181,0.85181 -1.49362,1.27771 -2.13247,1.70362 -0.42591,0.20999 -0.85181,0.4259 -1.0618,0.4259 -0.42886,0 -0.85181,-0.4259 -1.06476,-0.85181 -0.21295,-0.4259 -0.42886,-1.0618 -0.42886,-1.9136 0,-0.63886 0,-1.28067 0.21295,-2.13248 l 0.21295,-2.34247 c 0.21295,-2.12952 0.4259,-3.40427 0.4259,-3.83313 0,-0.42591 0,-0.85181 -0.20999,-1.06181 0,0 -0.21295,-0.21295 -0.42886,-0.21295 0,0 -0.42591,0.21295 -0.63886,0.42591 -0.8518,0.42886 -1.27771,0.8518 -1.70361,1.28067 l -0.42591,-0.85181 c 0.21,0 0.63886,-0.42886 1.70362,-1.28067 1.0618,-0.63886 1.91361,-1.27771 2.55246,-1.49066 0.42886,-0.42591 0.85181,-0.42591 1.28067,-0.42591 0.42591,0 0.63886,0.21295 0.85181,0.42591 0.20999,0.21295 0.20999,0.64181 0.20999,1.49066 0,0.21295 0,0.64181 0,1.06476 l -0.63885,5.1138 c -0.21295,0.85181 -0.21295,1.91361 -0.21295,2.76837 0,0.42887 0,0.63886 0.21295,0.85181 0,0.21295 0.21295,0.21295 0.42886,0.21295 0.4259,0 0.85181,-0.42886 1.70066,-1.28067 1.28066,-1.49066 2.13247,-3.40427 2.77133,-5.53674 0.85181,-1.91361 1.06476,-3.40427 1.06476,-4.25608 0.63885,-0.21295 1.70065,-0.42886 3.40427,-0.85181 l 0.42886,0.4259 c -0.42886,0.85181 -0.85181,2.13248 -1.28067,3.40723 l -1.27771,4.8979 c -0.85181,3.19427 -1.70361,5.32379 -2.34247,6.81445 -1.06476,2.12952 -2.12952,3.83314 -3.62018,4.8979 -1.49362,1.27771 -2.77133,1.70361 -4.04609,1.70361 -0.64181,0 -1.28066,0 -1.70361,-0.21295 -0.42886,-0.21295 -0.85181,-0.63886 -1.06476,-0.85181 -0.21295,-0.4259 -0.21295,-0.85181 -0.21295,-1.49066 v -0.21887 z" id="path91" style="fill:#4b0080;fill-opacity:1"/>
  </g>
</svg>